^C:\USERS\KUTSULAN\DESKTOP\TEST\TEST\ANIMATEDSPRITE.CPP
/c /ZI /nologo /W3 /WX- /sdl /Od /Oy- /D _MBCS /Gm /EHsc /RTC1 /MDd /GS /fp:precise /Zc:wchar_t /Zc:forScope /Fo"DEBUG\\" /Fd"DEBUG\VC120.PDB" /Gd /TP /analyze- C:\USERS\KUTSULAN\DESKTOP\TEST\TEST\ANIMATEDSPRITE.CPP
^C:\USERS\KUTSULAN\DESKTOP\TEST\TEST\GAME.CPP
/c /ZI /nologo /W3 /WX- /sdl /Od /Oy- /D _MBCS /Gm /EHsc /RTC1 /MDd /GS /fp:precise /Zc:wchar_t /Zc:forScope /Fo"DEBUG\\" /Fd"DEBUG\VC120.PDB" /Gd /TP /analyze- C:\USERS\KUTSULAN\DESKTOP\TEST\TEST\GAME.CPP
^C:\USERS\KUTSULAN\DESKTOP\TEST\TEST\GRAPHICS.CPP
/c /ZI /nologo /W3 /WX- /sdl /Od /Oy- /D _MBCS /Gm /EHsc /RTC1 /MDd /GS /fp:precise /Zc:wchar_t /Zc:forScope /Fo"DEBUG\\" /Fd"DEBUG\VC120.PDB" /Gd /TP /analyze- C:\USERS\KUTSULAN\DESKTOP\TEST\TEST\GRAPHICS.CPP
^C:\USERS\KUTSULAN\DESKTOP\TEST\TEST\INPUT.CPP
/c /ZI /nologo /W3 /WX- /sdl /Od /Oy- /D _MBCS /Gm /EHsc /RTC1 /MDd /GS /fp:precise /Zc:wchar_t /Zc:forScope /Fo"DEBUG\\" /Fd"DEBUG\VC120.PDB" /Gd /TP /analyze- C:\USERS\KUTSULAN\DESKTOP\TEST\TEST\INPUT.CPP
^C:\USERS\KUTSULAN\DESKTOP\TEST\TEST\LEVEL.CPP
/c /ZI /nologo /W3 /WX- /sdl /Od /Oy- /D _MBCS /Gm /EHsc /RTC1 /MDd /GS /fp:precise /Zc:wchar_t /Zc:forScope /Fo"DEBUG\\" /Fd"DEBUG\VC120.PDB" /Gd /TP /analyze- C:\USERS\KUTSULAN\DESKTOP\TEST\TEST\LEVEL.CPP
^C:\USERS\KUTSULAN\DESKTOP\TEST\TEST\MAIN.CPP
/c /ZI /nologo /W3 /WX- /sdl /Od /Oy- /D _MBCS /Gm /EHsc /RTC1 /MDd /GS /fp:precise /Zc:wchar_t /Zc:forScope /Fo"DEBUG\\" /Fd"DEBUG\VC120.PDB" /Gd /TP /analyze- C:\USERS\KUTSULAN\DESKTOP\TEST\TEST\MAIN.CPP
^C:\USERS\KUTSULAN\DESKTOP\TEST\TEST\PLAYER.CPP
/c /ZI /nologo /W3 /WX- /sdl /Od /Oy- /D _MBCS /Gm /EHsc /RTC1 /MDd /GS /fp:precise /Zc:wchar_t /Zc:forScope /Fo"DEBUG\\" /Fd"DEBUG\VC120.PDB" /Gd /TP /analyze- C:\USERS\KUTSULAN\DESKTOP\TEST\TEST\PLAYER.CPP
^C:\USERS\KUTSULAN\DESKTOP\TEST\TEST\SPRITE.CPP
/c /ZI /nologo /W3 /WX- /sdl /Od /Oy- /D _MBCS /Gm /EHsc /RTC1 /MDd /GS /fp:precise /Zc:wchar_t /Zc:forScope /Fo"DEBUG\\" /Fd"DEBUG\VC120.PDB" /Gd /TP /analyze- C:\USERS\KUTSULAN\DESKTOP\TEST\TEST\SPRITE.CPP
^C:\USERS\KUTSULAN\DESKTOP\TEST\TEST\TILE.CPP
/c /ZI /nologo /W3 /WX- /sdl /Od /Oy- /D _MBCS /Gm /EHsc /RTC1 /MDd /GS /fp:precise /Zc:wchar_t /Zc:forScope /Fo"DEBUG\\" /Fd"DEBUG\VC120.PDB" /Gd /TP /analyze- C:\USERS\KUTSULAN\DESKTOP\TEST\TEST\TILE.CPP
^C:\USERS\KUTSULAN\DESKTOP\TEST\TEST\TINYXML2.CPP
/c /ZI /nologo /W3 /WX- /sdl /Od /Oy- /D _MBCS /Gm /EHsc /RTC1 /MDd /GS /fp:precise /Zc:wchar_t /Zc:forScope /Fo"DEBUG\\" /Fd"DEBUG\VC120.PDB" /Gd /TP /analyze- C:\USERS\KUTSULAN\DESKTOP\TEST\TEST\TINYXML2.CPP
