^C:\USERS\KUTSULAN\DESKTOP\TEST\TEST\TINYXML2.CPP
C:\USERS\KUTSULAN\DESKTOP\TEST\TEST\TINYXML2.H
D:\GAMMING\GAME PROGRAMMING\VC\INCLUDE\CCTYPE
D:\GAMMING\GAME PROGRAMMING\VC\INCLUDE\YVALS.H
D:\GAMMING\GAME PROGRAMMING\VC\INCLUDE\XKEYCHECK.H
D:\GAMMING\GAME PROGRAMMING\VC\INCLUDE\CRTDEFS.H
D:\GAMMING\GAME PROGRAMMING\VC\INCLUDE\SAL.H
D:\GAMMING\GAME PROGRAMMING\VC\INCLUDE\CONCURRENCYSAL.H
D:\GAMMING\GAME PROGRAMMING\VC\INCLUDE\VADEFS.H
D:\GAMMING\GAME PROGRAMMING\VC\INCLUDE\USE_ANSI.H
D:\GAMMING\GAME PROGRAMMING\VC\INCLUDE\CTYPE.H
D:\GAMMING\GAME PROGRAMMING\VC\INCLUDE\CLIMITS
D:\GAMMING\GAME PROGRAMMING\VC\INCLUDE\LIMITS.H
D:\GAMMING\GAME PROGRAMMING\VC\INCLUDE\CSTDIO
D:\GAMMING\GAME PROGRAMMING\VC\INCLUDE\STDIO.H
D:\GAMMING\GAME PROGRAMMING\VC\INCLUDE\SWPRINTF.INL
D:\GAMMING\GAME PROGRAMMING\VC\INCLUDE\CSTDLIB
D:\GAMMING\GAME PROGRAMMING\VC\INCLUDE\STDLIB.H
D:\GAMMING\GAME PROGRAMMING\VC\INCLUDE\CSTRING
D:\GAMMING\GAME PROGRAMMING\VC\INCLUDE\STRING.H
D:\GAMMING\GAME PROGRAMMING\VC\INCLUDE\STDINT.H
D:\GAMMING\GAME PROGRAMMING\VC\INCLUDE\NEW
D:\GAMMING\GAME PROGRAMMING\VC\INCLUDE\EXCEPTION
D:\GAMMING\GAME PROGRAMMING\VC\INCLUDE\XSTDDEF
D:\GAMMING\GAME PROGRAMMING\VC\INCLUDE\CSTDDEF
D:\GAMMING\GAME PROGRAMMING\VC\INCLUDE\STDDEF.H
D:\GAMMING\GAME PROGRAMMING\VC\INCLUDE\INITIALIZER_LIST
D:\GAMMING\GAME PROGRAMMING\VC\INCLUDE\XTR1COMMON
D:\GAMMING\GAME PROGRAMMING\VC\INCLUDE\EH.H
D:\GAMMING\GAME PROGRAMMING\VC\INCLUDE\MALLOC.H
D:\GAMMING\GAME PROGRAMMING\VC\INCLUDE\CSTDARG
D:\GAMMING\GAME PROGRAMMING\VC\INCLUDE\STDARG.H
^C:\USERS\KUTSULAN\DESKTOP\TEST\TEST\TILE.CPP
C:\USERS\KUTSULAN\DESKTOP\TEST\TEST\TILE.H
C:\USERS\KUTSULAN\DESKTOP\TEST\TEST\GLOBALS.H
C:\USERS\KUTSULAN\DESKTOP\TEST\TEST\GRAPHICS.H
D:\GAMMING\GAME PROGRAMMING\VC\INCLUDE\STRING
D:\GAMMING\GAME PROGRAMMING\VC\INCLUDE\ITERATOR
D:\GAMMING\GAME PROGRAMMING\VC\INCLUDE\ISTREAM
D:\GAMMING\GAME PROGRAMMING\VC\INCLUDE\OSTREAM
D:\GAMMING\GAME PROGRAMMING\VC\INCLUDE\IOS
D:\GAMMING\GAME PROGRAMMING\VC\INCLUDE\XLOCNUM
D:\GAMMING\GAME PROGRAMMING\VC\INCLUDE\CLIMITS
D:\GAMMING\GAME PROGRAMMING\VC\INCLUDE\YVALS.H
D:\GAMMING\GAME PROGRAMMING\VC\INCLUDE\XKEYCHECK.H
D:\GAMMING\GAME PROGRAMMING\VC\INCLUDE\CRTDEFS.H
D:\GAMMING\GAME PROGRAMMING\VC\INCLUDE\SAL.H
D:\GAMMING\GAME PROGRAMMING\VC\INCLUDE\CONCURRENCYSAL.H
D:\GAMMING\GAME PROGRAMMING\VC\INCLUDE\VADEFS.H
D:\GAMMING\GAME PROGRAMMING\VC\INCLUDE\USE_ANSI.H
D:\GAMMING\GAME PROGRAMMING\VC\INCLUDE\LIMITS.H
D:\GAMMING\GAME PROGRAMMING\VC\INCLUDE\CMATH
D:\GAMMING\GAME PROGRAMMING\VC\INCLUDE\MATH.H
D:\GAMMING\GAME PROGRAMMING\VC\INCLUDE\XTGMATH.H
D:\GAMMING\GAME PROGRAMMING\VC\INCLUDE\XTR1COMMON
D:\GAMMING\GAME PROGRAMMING\VC\INCLUDE\CSTDIO
D:\GAMMING\GAME PROGRAMMING\VC\INCLUDE\STDIO.H
D:\GAMMING\GAME PROGRAMMING\VC\INCLUDE\SWPRINTF.INL
D:\GAMMING\GAME PROGRAMMING\VC\INCLUDE\CSTDLIB
D:\GAMMING\GAME PROGRAMMING\VC\INCLUDE\STDLIB.H
D:\GAMMING\GAME PROGRAMMING\VC\INCLUDE\STREAMBUF
D:\GAMMING\GAME PROGRAMMING\VC\INCLUDE\XIOSBASE
D:\GAMMING\GAME PROGRAMMING\VC\INCLUDE\XLOCALE
D:\GAMMING\GAME PROGRAMMING\VC\INCLUDE\CSTRING
D:\GAMMING\GAME PROGRAMMING\VC\INCLUDE\STRING.H
D:\GAMMING\GAME PROGRAMMING\VC\INCLUDE\STDEXCEPT
D:\GAMMING\GAME PROGRAMMING\VC\INCLUDE\EXCEPTION
D:\GAMMING\GAME PROGRAMMING\VC\INCLUDE\XSTDDEF
D:\GAMMING\GAME PROGRAMMING\VC\INCLUDE\CSTDDEF
D:\GAMMING\GAME PROGRAMMING\VC\INCLUDE\STDDEF.H
D:\GAMMING\GAME PROGRAMMING\VC\INCLUDE\INITIALIZER_LIST
D:\GAMMING\GAME PROGRAMMING\VC\INCLUDE\EH.H
D:\GAMMING\GAME PROGRAMMING\VC\INCLUDE\MALLOC.H
D:\GAMMING\GAME PROGRAMMING\VC\INCLUDE\XSTRING
D:\GAMMING\GAME PROGRAMMING\VC\INCLUDE\XMEMORY0
D:\GAMMING\GAME PROGRAMMING\VC\INCLUDE\LIMITS
D:\GAMMING\GAME PROGRAMMING\VC\INCLUDE\YMATH.H
D:\GAMMING\GAME PROGRAMMING\VC\INCLUDE\CFLOAT
D:\GAMMING\GAME PROGRAMMING\VC\INCLUDE\FLOAT.H
D:\GAMMING\GAME PROGRAMMING\VC\INCLUDE\CRTWRN.H
D:\GAMMING\GAME PROGRAMMING\VC\INCLUDE\CWCHAR
D:\GAMMING\GAME PROGRAMMING\VC\INCLUDE\WCHAR.H
D:\GAMMING\GAME PROGRAMMING\VC\INCLUDE\WTIME.INL
D:\GAMMING\GAME PROGRAMMING\VC\INCLUDE\NEW
D:\GAMMING\GAME PROGRAMMING\VC\INCLUDE\XUTILITY
D:\GAMMING\GAME PROGRAMMING\VC\INCLUDE\UTILITY
D:\GAMMING\GAME PROGRAMMING\VC\INCLUDE\IOSFWD
D:\GAMMING\GAME PROGRAMMING\VC\INCLUDE\CRTDBG.H
D:\GAMMING\GAME PROGRAMMING\VC\INCLUDE\TYPE_TRAITS
D:\GAMMING\GAME PROGRAMMING\VC\INCLUDE\XREFWRAP
D:\GAMMING\GAME PROGRAMMING\VC\INCLUDE\XATOMIC0.H
D:\GAMMING\GAME PROGRAMMING\VC\INCLUDE\INTRIN.H
D:\GAMMING\GAME PROGRAMMING\VC\INCLUDE\SETJMP.H
D:\GAMMING\GAME PROGRAMMING\VC\INCLUDE\IMMINTRIN.H
D:\GAMMING\GAME PROGRAMMING\VC\INCLUDE\WMMINTRIN.H
D:\GAMMING\GAME PROGRAMMING\VC\INCLUDE\NMMINTRIN.H
D:\GAMMING\GAME PROGRAMMING\VC\INCLUDE\SMMINTRIN.H
D:\GAMMING\GAME PROGRAMMING\VC\INCLUDE\TMMINTRIN.H
D:\GAMMING\GAME PROGRAMMING\VC\INCLUDE\PMMINTRIN.H
D:\GAMMING\GAME PROGRAMMING\VC\INCLUDE\EMMINTRIN.H
D:\GAMMING\GAME PROGRAMMING\VC\INCLUDE\XMMINTRIN.H
D:\GAMMING\GAME PROGRAMMING\VC\INCLUDE\MMINTRIN.H
D:\GAMMING\GAME PROGRAMMING\VC\INCLUDE\AMMINTRIN.H
D:\GAMMING\GAME PROGRAMMING\VC\INCLUDE\MM3DNOW.H
D:\GAMMING\GAME PROGRAMMING\VC\INCLUDE\TYPEINFO
D:\GAMMING\GAME PROGRAMMING\VC\INCLUDE\XLOCINFO
D:\GAMMING\GAME PROGRAMMING\VC\INCLUDE\XLOCINFO.H
D:\GAMMING\GAME PROGRAMMING\VC\INCLUDE\CTYPE.H
D:\GAMMING\GAME PROGRAMMING\VC\INCLUDE\LOCALE.H
D:\GAMMING\GAME PROGRAMMING\VC\INCLUDE\XDEBUG
D:\GAMMING\GAME PROGRAMMING\VC\INCLUDE\XMEMORY
D:\GAMMING\GAME PROGRAMMING\VC\INCLUDE\XFACET
D:\GAMMING\GAME PROGRAMMING\VC\INCLUDE\SYSTEM_ERROR
D:\GAMMING\GAME PROGRAMMING\VC\INCLUDE\CERRNO
D:\GAMMING\GAME PROGRAMMING\VC\INCLUDE\ERRNO.H
D:\GAMMING\GAME PROGRAMMING\VC\INCLUDE\SHARE.H
D:\GAMMING\GAME PROGRAMMING\VC\INCLUDE\MAP
D:\GAMMING\GAME PROGRAMMING\VC\INCLUDE\XTREE
D:\GAMMING\GAME PROGRAMMING\VC\INCLUDE\TUPLE
C:\USERS\KUTSULAN\DESKTOP\TEST\DEPS\INCLUDE\SDL.H
C:\USERS\KUTSULAN\DESKTOP\TEST\DEPS\INCLUDE\SDL_MAIN.H
C:\USERS\KUTSULAN\DESKTOP\TEST\DEPS\INCLUDE\SDL_STDINC.H
C:\USERS\KUTSULAN\DESKTOP\TEST\DEPS\INCLUDE\SDL_CONFIG.H
C:\USERS\KUTSULAN\DESKTOP\TEST\DEPS\INCLUDE\SDL_PLATFORM.H
C:\PROGRAM FILES (X86)\WINDOWS KITS\8.1\INCLUDE\SHARED\WINAPIFAMILY.H
C:\USERS\KUTSULAN\DESKTOP\TEST\DEPS\INCLUDE\BEGIN_CODE.H
C:\USERS\KUTSULAN\DESKTOP\TEST\DEPS\INCLUDE\CLOSE_CODE.H
D:\GAMMING\GAME PROGRAMMING\VC\INCLUDE\STDARG.H
C:\USERS\KUTSULAN\DESKTOP\TEST\DEPS\INCLUDE\SDL_ASSERT.H
C:\USERS\KUTSULAN\DESKTOP\TEST\DEPS\INCLUDE\SDL_ATOMIC.H
C:\USERS\KUTSULAN\DESKTOP\TEST\DEPS\INCLUDE\SDL_AUDIO.H
C:\USERS\KUTSULAN\DESKTOP\TEST\DEPS\INCLUDE\SDL_ERROR.H
C:\USERS\KUTSULAN\DESKTOP\TEST\DEPS\INCLUDE\SDL_ENDIAN.H
C:\USERS\KUTSULAN\DESKTOP\TEST\DEPS\INCLUDE\SDL_MUTEX.H
C:\USERS\KUTSULAN\DESKTOP\TEST\DEPS\INCLUDE\SDL_THREAD.H
D:\GAMMING\GAME PROGRAMMING\VC\INCLUDE\PROCESS.H
C:\USERS\KUTSULAN\DESKTOP\TEST\DEPS\INCLUDE\SDL_RWOPS.H
C:\USERS\KUTSULAN\DESKTOP\TEST\DEPS\INCLUDE\SDL_CLIPBOARD.H
C:\USERS\KUTSULAN\DESKTOP\TEST\DEPS\INCLUDE\SDL_CPUINFO.H
C:\USERS\KUTSULAN\DESKTOP\TEST\DEPS\INCLUDE\SDL_EVENTS.H
C:\USERS\KUTSULAN\DESKTOP\TEST\DEPS\INCLUDE\SDL_VIDEO.H
C:\USERS\KUTSULAN\DESKTOP\TEST\DEPS\INCLUDE\SDL_PIXELS.H
C:\USERS\KUTSULAN\DESKTOP\TEST\DEPS\INCLUDE\SDL_RECT.H
C:\USERS\KUTSULAN\DESKTOP\TEST\DEPS\INCLUDE\SDL_SURFACE.H
C:\USERS\KUTSULAN\DESKTOP\TEST\DEPS\INCLUDE\SDL_BLENDMODE.H
C:\USERS\KUTSULAN\DESKTOP\TEST\DEPS\INCLUDE\SDL_KEYBOARD.H
C:\USERS\KUTSULAN\DESKTOP\TEST\DEPS\INCLUDE\SDL_KEYCODE.H
C:\USERS\KUTSULAN\DESKTOP\TEST\DEPS\INCLUDE\SDL_SCANCODE.H
C:\USERS\KUTSULAN\DESKTOP\TEST\DEPS\INCLUDE\SDL_MOUSE.H
C:\USERS\KUTSULAN\DESKTOP\TEST\DEPS\INCLUDE\SDL_JOYSTICK.H
C:\USERS\KUTSULAN\DESKTOP\TEST\DEPS\INCLUDE\SDL_GAMECONTROLLER.H
C:\USERS\KUTSULAN\DESKTOP\TEST\DEPS\INCLUDE\SDL_QUIT.H
C:\USERS\KUTSULAN\DESKTOP\TEST\DEPS\INCLUDE\SDL_GESTURE.H
C:\USERS\KUTSULAN\DESKTOP\TEST\DEPS\INCLUDE\SDL_TOUCH.H
C:\USERS\KUTSULAN\DESKTOP\TEST\DEPS\INCLUDE\SDL_FILESYSTEM.H
C:\USERS\KUTSULAN\DESKTOP\TEST\DEPS\INCLUDE\SDL_HAPTIC.H
C:\USERS\KUTSULAN\DESKTOP\TEST\DEPS\INCLUDE\SDL_HINTS.H
C:\USERS\KUTSULAN\DESKTOP\TEST\DEPS\INCLUDE\SDL_LOADSO.H
C:\USERS\KUTSULAN\DESKTOP\TEST\DEPS\INCLUDE\SDL_LOG.H
C:\USERS\KUTSULAN\DESKTOP\TEST\DEPS\INCLUDE\SDL_MESSAGEBOX.H
C:\USERS\KUTSULAN\DESKTOP\TEST\DEPS\INCLUDE\SDL_POWER.H
C:\USERS\KUTSULAN\DESKTOP\TEST\DEPS\INCLUDE\SDL_RENDER.H
C:\USERS\KUTSULAN\DESKTOP\TEST\DEPS\INCLUDE\SDL_SYSTEM.H
C:\USERS\KUTSULAN\DESKTOP\TEST\DEPS\INCLUDE\SDL_TIMER.H
C:\USERS\KUTSULAN\DESKTOP\TEST\DEPS\INCLUDE\SDL_VERSION.H
^C:\USERS\KUTSULAN\DESKTOP\TEST\TEST\SPRITE.CPP
C:\USERS\KUTSULAN\DESKTOP\TEST\TEST\SPRITE.H
C:\USERS\KUTSULAN\DESKTOP\TEST\TEST\GRAPHICS.H
D:\GAMMING\GAME PROGRAMMING\VC\INCLUDE\STRING
D:\GAMMING\GAME PROGRAMMING\VC\INCLUDE\ITERATOR
D:\GAMMING\GAME PROGRAMMING\VC\INCLUDE\ISTREAM
D:\GAMMING\GAME PROGRAMMING\VC\INCLUDE\OSTREAM
D:\GAMMING\GAME PROGRAMMING\VC\INCLUDE\IOS
D:\GAMMING\GAME PROGRAMMING\VC\INCLUDE\XLOCNUM
D:\GAMMING\GAME PROGRAMMING\VC\INCLUDE\CLIMITS
D:\GAMMING\GAME PROGRAMMING\VC\INCLUDE\YVALS.H
D:\GAMMING\GAME PROGRAMMING\VC\INCLUDE\XKEYCHECK.H
D:\GAMMING\GAME PROGRAMMING\VC\INCLUDE\CRTDEFS.H
D:\GAMMING\GAME PROGRAMMING\VC\INCLUDE\SAL.H
D:\GAMMING\GAME PROGRAMMING\VC\INCLUDE\CONCURRENCYSAL.H
D:\GAMMING\GAME PROGRAMMING\VC\INCLUDE\VADEFS.H
D:\GAMMING\GAME PROGRAMMING\VC\INCLUDE\USE_ANSI.H
D:\GAMMING\GAME PROGRAMMING\VC\INCLUDE\LIMITS.H
D:\GAMMING\GAME PROGRAMMING\VC\INCLUDE\CMATH
D:\GAMMING\GAME PROGRAMMING\VC\INCLUDE\MATH.H
D:\GAMMING\GAME PROGRAMMING\VC\INCLUDE\XTGMATH.H
D:\GAMMING\GAME PROGRAMMING\VC\INCLUDE\XTR1COMMON
D:\GAMMING\GAME PROGRAMMING\VC\INCLUDE\CSTDIO
D:\GAMMING\GAME PROGRAMMING\VC\INCLUDE\STDIO.H
D:\GAMMING\GAME PROGRAMMING\VC\INCLUDE\SWPRINTF.INL
D:\GAMMING\GAME PROGRAMMING\VC\INCLUDE\CSTDLIB
D:\GAMMING\GAME PROGRAMMING\VC\INCLUDE\STDLIB.H
D:\GAMMING\GAME PROGRAMMING\VC\INCLUDE\STREAMBUF
D:\GAMMING\GAME PROGRAMMING\VC\INCLUDE\XIOSBASE
D:\GAMMING\GAME PROGRAMMING\VC\INCLUDE\XLOCALE
D:\GAMMING\GAME PROGRAMMING\VC\INCLUDE\CSTRING
D:\GAMMING\GAME PROGRAMMING\VC\INCLUDE\STRING.H
D:\GAMMING\GAME PROGRAMMING\VC\INCLUDE\STDEXCEPT
D:\GAMMING\GAME PROGRAMMING\VC\INCLUDE\EXCEPTION
D:\GAMMING\GAME PROGRAMMING\VC\INCLUDE\XSTDDEF
D:\GAMMING\GAME PROGRAMMING\VC\INCLUDE\CSTDDEF
D:\GAMMING\GAME PROGRAMMING\VC\INCLUDE\STDDEF.H
D:\GAMMING\GAME PROGRAMMING\VC\INCLUDE\INITIALIZER_LIST
D:\GAMMING\GAME PROGRAMMING\VC\INCLUDE\EH.H
D:\GAMMING\GAME PROGRAMMING\VC\INCLUDE\MALLOC.H
D:\GAMMING\GAME PROGRAMMING\VC\INCLUDE\XSTRING
D:\GAMMING\GAME PROGRAMMING\VC\INCLUDE\XMEMORY0
D:\GAMMING\GAME PROGRAMMING\VC\INCLUDE\LIMITS
D:\GAMMING\GAME PROGRAMMING\VC\INCLUDE\YMATH.H
D:\GAMMING\GAME PROGRAMMING\VC\INCLUDE\CFLOAT
D:\GAMMING\GAME PROGRAMMING\VC\INCLUDE\FLOAT.H
D:\GAMMING\GAME PROGRAMMING\VC\INCLUDE\CRTWRN.H
D:\GAMMING\GAME PROGRAMMING\VC\INCLUDE\CWCHAR
D:\GAMMING\GAME PROGRAMMING\VC\INCLUDE\WCHAR.H
D:\GAMMING\GAME PROGRAMMING\VC\INCLUDE\WTIME.INL
D:\GAMMING\GAME PROGRAMMING\VC\INCLUDE\NEW
D:\GAMMING\GAME PROGRAMMING\VC\INCLUDE\XUTILITY
D:\GAMMING\GAME PROGRAMMING\VC\INCLUDE\UTILITY
D:\GAMMING\GAME PROGRAMMING\VC\INCLUDE\IOSFWD
D:\GAMMING\GAME PROGRAMMING\VC\INCLUDE\CRTDBG.H
D:\GAMMING\GAME PROGRAMMING\VC\INCLUDE\TYPE_TRAITS
D:\GAMMING\GAME PROGRAMMING\VC\INCLUDE\XREFWRAP
D:\GAMMING\GAME PROGRAMMING\VC\INCLUDE\XATOMIC0.H
D:\GAMMING\GAME PROGRAMMING\VC\INCLUDE\INTRIN.H
D:\GAMMING\GAME PROGRAMMING\VC\INCLUDE\SETJMP.H
D:\GAMMING\GAME PROGRAMMING\VC\INCLUDE\IMMINTRIN.H
D:\GAMMING\GAME PROGRAMMING\VC\INCLUDE\WMMINTRIN.H
D:\GAMMING\GAME PROGRAMMING\VC\INCLUDE\NMMINTRIN.H
D:\GAMMING\GAME PROGRAMMING\VC\INCLUDE\SMMINTRIN.H
D:\GAMMING\GAME PROGRAMMING\VC\INCLUDE\TMMINTRIN.H
D:\GAMMING\GAME PROGRAMMING\VC\INCLUDE\PMMINTRIN.H
D:\GAMMING\GAME PROGRAMMING\VC\INCLUDE\EMMINTRIN.H
D:\GAMMING\GAME PROGRAMMING\VC\INCLUDE\XMMINTRIN.H
D:\GAMMING\GAME PROGRAMMING\VC\INCLUDE\MMINTRIN.H
D:\GAMMING\GAME PROGRAMMING\VC\INCLUDE\AMMINTRIN.H
D:\GAMMING\GAME PROGRAMMING\VC\INCLUDE\MM3DNOW.H
D:\GAMMING\GAME PROGRAMMING\VC\INCLUDE\TYPEINFO
D:\GAMMING\GAME PROGRAMMING\VC\INCLUDE\XLOCINFO
D:\GAMMING\GAME PROGRAMMING\VC\INCLUDE\XLOCINFO.H
D:\GAMMING\GAME PROGRAMMING\VC\INCLUDE\CTYPE.H
D:\GAMMING\GAME PROGRAMMING\VC\INCLUDE\LOCALE.H
D:\GAMMING\GAME PROGRAMMING\VC\INCLUDE\XDEBUG
D:\GAMMING\GAME PROGRAMMING\VC\INCLUDE\XMEMORY
D:\GAMMING\GAME PROGRAMMING\VC\INCLUDE\XFACET
D:\GAMMING\GAME PROGRAMMING\VC\INCLUDE\SYSTEM_ERROR
D:\GAMMING\GAME PROGRAMMING\VC\INCLUDE\CERRNO
D:\GAMMING\GAME PROGRAMMING\VC\INCLUDE\ERRNO.H
D:\GAMMING\GAME PROGRAMMING\VC\INCLUDE\SHARE.H
D:\GAMMING\GAME PROGRAMMING\VC\INCLUDE\MAP
D:\GAMMING\GAME PROGRAMMING\VC\INCLUDE\XTREE
D:\GAMMING\GAME PROGRAMMING\VC\INCLUDE\TUPLE
C:\USERS\KUTSULAN\DESKTOP\TEST\DEPS\INCLUDE\SDL.H
C:\USERS\KUTSULAN\DESKTOP\TEST\DEPS\INCLUDE\SDL_MAIN.H
C:\USERS\KUTSULAN\DESKTOP\TEST\DEPS\INCLUDE\SDL_STDINC.H
C:\USERS\KUTSULAN\DESKTOP\TEST\DEPS\INCLUDE\SDL_CONFIG.H
C:\USERS\KUTSULAN\DESKTOP\TEST\DEPS\INCLUDE\SDL_PLATFORM.H
C:\PROGRAM FILES (X86)\WINDOWS KITS\8.1\INCLUDE\SHARED\WINAPIFAMILY.H
C:\USERS\KUTSULAN\DESKTOP\TEST\DEPS\INCLUDE\BEGIN_CODE.H
C:\USERS\KUTSULAN\DESKTOP\TEST\DEPS\INCLUDE\CLOSE_CODE.H
D:\GAMMING\GAME PROGRAMMING\VC\INCLUDE\STDARG.H
C:\USERS\KUTSULAN\DESKTOP\TEST\DEPS\INCLUDE\SDL_ASSERT.H
C:\USERS\KUTSULAN\DESKTOP\TEST\DEPS\INCLUDE\SDL_ATOMIC.H
C:\USERS\KUTSULAN\DESKTOP\TEST\DEPS\INCLUDE\SDL_AUDIO.H
C:\USERS\KUTSULAN\DESKTOP\TEST\DEPS\INCLUDE\SDL_ERROR.H
C:\USERS\KUTSULAN\DESKTOP\TEST\DEPS\INCLUDE\SDL_ENDIAN.H
C:\USERS\KUTSULAN\DESKTOP\TEST\DEPS\INCLUDE\SDL_MUTEX.H
C:\USERS\KUTSULAN\DESKTOP\TEST\DEPS\INCLUDE\SDL_THREAD.H
D:\GAMMING\GAME PROGRAMMING\VC\INCLUDE\PROCESS.H
C:\USERS\KUTSULAN\DESKTOP\TEST\DEPS\INCLUDE\SDL_RWOPS.H
C:\USERS\KUTSULAN\DESKTOP\TEST\DEPS\INCLUDE\SDL_CLIPBOARD.H
C:\USERS\KUTSULAN\DESKTOP\TEST\DEPS\INCLUDE\SDL_CPUINFO.H
C:\USERS\KUTSULAN\DESKTOP\TEST\DEPS\INCLUDE\SDL_EVENTS.H
C:\USERS\KUTSULAN\DESKTOP\TEST\DEPS\INCLUDE\SDL_VIDEO.H
C:\USERS\KUTSULAN\DESKTOP\TEST\DEPS\INCLUDE\SDL_PIXELS.H
C:\USERS\KUTSULAN\DESKTOP\TEST\DEPS\INCLUDE\SDL_RECT.H
C:\USERS\KUTSULAN\DESKTOP\TEST\DEPS\INCLUDE\SDL_SURFACE.H
C:\USERS\KUTSULAN\DESKTOP\TEST\DEPS\INCLUDE\SDL_BLENDMODE.H
C:\USERS\KUTSULAN\DESKTOP\TEST\DEPS\INCLUDE\SDL_KEYBOARD.H
C:\USERS\KUTSULAN\DESKTOP\TEST\DEPS\INCLUDE\SDL_KEYCODE.H
C:\USERS\KUTSULAN\DESKTOP\TEST\DEPS\INCLUDE\SDL_SCANCODE.H
C:\USERS\KUTSULAN\DESKTOP\TEST\DEPS\INCLUDE\SDL_MOUSE.H
C:\USERS\KUTSULAN\DESKTOP\TEST\DEPS\INCLUDE\SDL_JOYSTICK.H
C:\USERS\KUTSULAN\DESKTOP\TEST\DEPS\INCLUDE\SDL_GAMECONTROLLER.H
C:\USERS\KUTSULAN\DESKTOP\TEST\DEPS\INCLUDE\SDL_QUIT.H
C:\USERS\KUTSULAN\DESKTOP\TEST\DEPS\INCLUDE\SDL_GESTURE.H
C:\USERS\KUTSULAN\DESKTOP\TEST\DEPS\INCLUDE\SDL_TOUCH.H
C:\USERS\KUTSULAN\DESKTOP\TEST\DEPS\INCLUDE\SDL_FILESYSTEM.H
C:\USERS\KUTSULAN\DESKTOP\TEST\DEPS\INCLUDE\SDL_HAPTIC.H
C:\USERS\KUTSULAN\DESKTOP\TEST\DEPS\INCLUDE\SDL_HINTS.H
C:\USERS\KUTSULAN\DESKTOP\TEST\DEPS\INCLUDE\SDL_LOADSO.H
C:\USERS\KUTSULAN\DESKTOP\TEST\DEPS\INCLUDE\SDL_LOG.H
C:\USERS\KUTSULAN\DESKTOP\TEST\DEPS\INCLUDE\SDL_MESSAGEBOX.H
C:\USERS\KUTSULAN\DESKTOP\TEST\DEPS\INCLUDE\SDL_POWER.H
C:\USERS\KUTSULAN\DESKTOP\TEST\DEPS\INCLUDE\SDL_RENDER.H
C:\USERS\KUTSULAN\DESKTOP\TEST\DEPS\INCLUDE\SDL_SYSTEM.H
C:\USERS\KUTSULAN\DESKTOP\TEST\DEPS\INCLUDE\SDL_TIMER.H
C:\USERS\KUTSULAN\DESKTOP\TEST\DEPS\INCLUDE\SDL_VERSION.H
C:\USERS\KUTSULAN\DESKTOP\TEST\TEST\RECTANGLE.H
C:\USERS\KUTSULAN\DESKTOP\TEST\TEST\GLOBALS.H
^C:\USERS\KUTSULAN\DESKTOP\TEST\TEST\PLAYER.CPP
C:\USERS\KUTSULAN\DESKTOP\TEST\TEST\PLAYER.H
C:\USERS\KUTSULAN\DESKTOP\TEST\TEST\GLOBALS.H
C:\USERS\KUTSULAN\DESKTOP\TEST\TEST\ANIMATEDSPRITE.H
C:\USERS\KUTSULAN\DESKTOP\TEST\TEST\SPRITE.H
C:\USERS\KUTSULAN\DESKTOP\TEST\TEST\GRAPHICS.H
D:\GAMMING\GAME PROGRAMMING\VC\INCLUDE\STRING
D:\GAMMING\GAME PROGRAMMING\VC\INCLUDE\ITERATOR
D:\GAMMING\GAME PROGRAMMING\VC\INCLUDE\ISTREAM
D:\GAMMING\GAME PROGRAMMING\VC\INCLUDE\OSTREAM
D:\GAMMING\GAME PROGRAMMING\VC\INCLUDE\IOS
D:\GAMMING\GAME PROGRAMMING\VC\INCLUDE\XLOCNUM
D:\GAMMING\GAME PROGRAMMING\VC\INCLUDE\CLIMITS
D:\GAMMING\GAME PROGRAMMING\VC\INCLUDE\YVALS.H
D:\GAMMING\GAME PROGRAMMING\VC\INCLUDE\XKEYCHECK.H
D:\GAMMING\GAME PROGRAMMING\VC\INCLUDE\CRTDEFS.H
D:\GAMMING\GAME PROGRAMMING\VC\INCLUDE\SAL.H
D:\GAMMING\GAME PROGRAMMING\VC\INCLUDE\CONCURRENCYSAL.H
D:\GAMMING\GAME PROGRAMMING\VC\INCLUDE\VADEFS.H
D:\GAMMING\GAME PROGRAMMING\VC\INCLUDE\USE_ANSI.H
D:\GAMMING\GAME PROGRAMMING\VC\INCLUDE\LIMITS.H
D:\GAMMING\GAME PROGRAMMING\VC\INCLUDE\CMATH
D:\GAMMING\GAME PROGRAMMING\VC\INCLUDE\MATH.H
D:\GAMMING\GAME PROGRAMMING\VC\INCLUDE\XTGMATH.H
D:\GAMMING\GAME PROGRAMMING\VC\INCLUDE\XTR1COMMON
D:\GAMMING\GAME PROGRAMMING\VC\INCLUDE\CSTDIO
D:\GAMMING\GAME PROGRAMMING\VC\INCLUDE\STDIO.H
D:\GAMMING\GAME PROGRAMMING\VC\INCLUDE\SWPRINTF.INL
D:\GAMMING\GAME PROGRAMMING\VC\INCLUDE\CSTDLIB
D:\GAMMING\GAME PROGRAMMING\VC\INCLUDE\STDLIB.H
D:\GAMMING\GAME PROGRAMMING\VC\INCLUDE\STREAMBUF
D:\GAMMING\GAME PROGRAMMING\VC\INCLUDE\XIOSBASE
D:\GAMMING\GAME PROGRAMMING\VC\INCLUDE\XLOCALE
D:\GAMMING\GAME PROGRAMMING\VC\INCLUDE\CSTRING
D:\GAMMING\GAME PROGRAMMING\VC\INCLUDE\STRING.H
D:\GAMMING\GAME PROGRAMMING\VC\INCLUDE\STDEXCEPT
D:\GAMMING\GAME PROGRAMMING\VC\INCLUDE\EXCEPTION
D:\GAMMING\GAME PROGRAMMING\VC\INCLUDE\XSTDDEF
D:\GAMMING\GAME PROGRAMMING\VC\INCLUDE\CSTDDEF
D:\GAMMING\GAME PROGRAMMING\VC\INCLUDE\STDDEF.H
D:\GAMMING\GAME PROGRAMMING\VC\INCLUDE\INITIALIZER_LIST
D:\GAMMING\GAME PROGRAMMING\VC\INCLUDE\EH.H
D:\GAMMING\GAME PROGRAMMING\VC\INCLUDE\MALLOC.H
D:\GAMMING\GAME PROGRAMMING\VC\INCLUDE\XSTRING
D:\GAMMING\GAME PROGRAMMING\VC\INCLUDE\XMEMORY0
D:\GAMMING\GAME PROGRAMMING\VC\INCLUDE\LIMITS
D:\GAMMING\GAME PROGRAMMING\VC\INCLUDE\YMATH.H
D:\GAMMING\GAME PROGRAMMING\VC\INCLUDE\CFLOAT
D:\GAMMING\GAME PROGRAMMING\VC\INCLUDE\FLOAT.H
D:\GAMMING\GAME PROGRAMMING\VC\INCLUDE\CRTWRN.H
D:\GAMMING\GAME PROGRAMMING\VC\INCLUDE\CWCHAR
D:\GAMMING\GAME PROGRAMMING\VC\INCLUDE\WCHAR.H
D:\GAMMING\GAME PROGRAMMING\VC\INCLUDE\WTIME.INL
D:\GAMMING\GAME PROGRAMMING\VC\INCLUDE\NEW
D:\GAMMING\GAME PROGRAMMING\VC\INCLUDE\XUTILITY
D:\GAMMING\GAME PROGRAMMING\VC\INCLUDE\UTILITY
D:\GAMMING\GAME PROGRAMMING\VC\INCLUDE\IOSFWD
D:\GAMMING\GAME PROGRAMMING\VC\INCLUDE\CRTDBG.H
D:\GAMMING\GAME PROGRAMMING\VC\INCLUDE\TYPE_TRAITS
D:\GAMMING\GAME PROGRAMMING\VC\INCLUDE\XREFWRAP
D:\GAMMING\GAME PROGRAMMING\VC\INCLUDE\XATOMIC0.H
D:\GAMMING\GAME PROGRAMMING\VC\INCLUDE\INTRIN.H
D:\GAMMING\GAME PROGRAMMING\VC\INCLUDE\SETJMP.H
D:\GAMMING\GAME PROGRAMMING\VC\INCLUDE\IMMINTRIN.H
D:\GAMMING\GAME PROGRAMMING\VC\INCLUDE\WMMINTRIN.H
D:\GAMMING\GAME PROGRAMMING\VC\INCLUDE\NMMINTRIN.H
D:\GAMMING\GAME PROGRAMMING\VC\INCLUDE\SMMINTRIN.H
D:\GAMMING\GAME PROGRAMMING\VC\INCLUDE\TMMINTRIN.H
D:\GAMMING\GAME PROGRAMMING\VC\INCLUDE\PMMINTRIN.H
D:\GAMMING\GAME PROGRAMMING\VC\INCLUDE\EMMINTRIN.H
D:\GAMMING\GAME PROGRAMMING\VC\INCLUDE\XMMINTRIN.H
D:\GAMMING\GAME PROGRAMMING\VC\INCLUDE\MMINTRIN.H
D:\GAMMING\GAME PROGRAMMING\VC\INCLUDE\AMMINTRIN.H
D:\GAMMING\GAME PROGRAMMING\VC\INCLUDE\MM3DNOW.H
D:\GAMMING\GAME PROGRAMMING\VC\INCLUDE\TYPEINFO
D:\GAMMING\GAME PROGRAMMING\VC\INCLUDE\XLOCINFO
D:\GAMMING\GAME PROGRAMMING\VC\INCLUDE\XLOCINFO.H
D:\GAMMING\GAME PROGRAMMING\VC\INCLUDE\CTYPE.H
D:\GAMMING\GAME PROGRAMMING\VC\INCLUDE\LOCALE.H
D:\GAMMING\GAME PROGRAMMING\VC\INCLUDE\XDEBUG
D:\GAMMING\GAME PROGRAMMING\VC\INCLUDE\XMEMORY
D:\GAMMING\GAME PROGRAMMING\VC\INCLUDE\XFACET
D:\GAMMING\GAME PROGRAMMING\VC\INCLUDE\SYSTEM_ERROR
D:\GAMMING\GAME PROGRAMMING\VC\INCLUDE\CERRNO
D:\GAMMING\GAME PROGRAMMING\VC\INCLUDE\ERRNO.H
D:\GAMMING\GAME PROGRAMMING\VC\INCLUDE\SHARE.H
D:\GAMMING\GAME PROGRAMMING\VC\INCLUDE\MAP
D:\GAMMING\GAME PROGRAMMING\VC\INCLUDE\XTREE
D:\GAMMING\GAME PROGRAMMING\VC\INCLUDE\TUPLE
C:\USERS\KUTSULAN\DESKTOP\TEST\DEPS\INCLUDE\SDL.H
C:\USERS\KUTSULAN\DESKTOP\TEST\DEPS\INCLUDE\SDL_MAIN.H
C:\USERS\KUTSULAN\DESKTOP\TEST\DEPS\INCLUDE\SDL_STDINC.H
C:\USERS\KUTSULAN\DESKTOP\TEST\DEPS\INCLUDE\SDL_CONFIG.H
C:\USERS\KUTSULAN\DESKTOP\TEST\DEPS\INCLUDE\SDL_PLATFORM.H
C:\PROGRAM FILES (X86)\WINDOWS KITS\8.1\INCLUDE\SHARED\WINAPIFAMILY.H
C:\USERS\KUTSULAN\DESKTOP\TEST\DEPS\INCLUDE\BEGIN_CODE.H
C:\USERS\KUTSULAN\DESKTOP\TEST\DEPS\INCLUDE\CLOSE_CODE.H
D:\GAMMING\GAME PROGRAMMING\VC\INCLUDE\STDARG.H
C:\USERS\KUTSULAN\DESKTOP\TEST\DEPS\INCLUDE\SDL_ASSERT.H
C:\USERS\KUTSULAN\DESKTOP\TEST\DEPS\INCLUDE\SDL_ATOMIC.H
C:\USERS\KUTSULAN\DESKTOP\TEST\DEPS\INCLUDE\SDL_AUDIO.H
C:\USERS\KUTSULAN\DESKTOP\TEST\DEPS\INCLUDE\SDL_ERROR.H
C:\USERS\KUTSULAN\DESKTOP\TEST\DEPS\INCLUDE\SDL_ENDIAN.H
C:\USERS\KUTSULAN\DESKTOP\TEST\DEPS\INCLUDE\SDL_MUTEX.H
C:\USERS\KUTSULAN\DESKTOP\TEST\DEPS\INCLUDE\SDL_THREAD.H
D:\GAMMING\GAME PROGRAMMING\VC\INCLUDE\PROCESS.H
C:\USERS\KUTSULAN\DESKTOP\TEST\DEPS\INCLUDE\SDL_RWOPS.H
C:\USERS\KUTSULAN\DESKTOP\TEST\DEPS\INCLUDE\SDL_CLIPBOARD.H
C:\USERS\KUTSULAN\DESKTOP\TEST\DEPS\INCLUDE\SDL_CPUINFO.H
C:\USERS\KUTSULAN\DESKTOP\TEST\DEPS\INCLUDE\SDL_EVENTS.H
C:\USERS\KUTSULAN\DESKTOP\TEST\DEPS\INCLUDE\SDL_VIDEO.H
C:\USERS\KUTSULAN\DESKTOP\TEST\DEPS\INCLUDE\SDL_PIXELS.H
C:\USERS\KUTSULAN\DESKTOP\TEST\DEPS\INCLUDE\SDL_RECT.H
C:\USERS\KUTSULAN\DESKTOP\TEST\DEPS\INCLUDE\SDL_SURFACE.H
C:\USERS\KUTSULAN\DESKTOP\TEST\DEPS\INCLUDE\SDL_BLENDMODE.H
C:\USERS\KUTSULAN\DESKTOP\TEST\DEPS\INCLUDE\SDL_KEYBOARD.H
C:\USERS\KUTSULAN\DESKTOP\TEST\DEPS\INCLUDE\SDL_KEYCODE.H
C:\USERS\KUTSULAN\DESKTOP\TEST\DEPS\INCLUDE\SDL_SCANCODE.H
C:\USERS\KUTSULAN\DESKTOP\TEST\DEPS\INCLUDE\SDL_MOUSE.H
C:\USERS\KUTSULAN\DESKTOP\TEST\DEPS\INCLUDE\SDL_JOYSTICK.H
C:\USERS\KUTSULAN\DESKTOP\TEST\DEPS\INCLUDE\SDL_GAMECONTROLLER.H
C:\USERS\KUTSULAN\DESKTOP\TEST\DEPS\INCLUDE\SDL_QUIT.H
C:\USERS\KUTSULAN\DESKTOP\TEST\DEPS\INCLUDE\SDL_GESTURE.H
C:\USERS\KUTSULAN\DESKTOP\TEST\DEPS\INCLUDE\SDL_TOUCH.H
C:\USERS\KUTSULAN\DESKTOP\TEST\DEPS\INCLUDE\SDL_FILESYSTEM.H
C:\USERS\KUTSULAN\DESKTOP\TEST\DEPS\INCLUDE\SDL_HAPTIC.H
C:\USERS\KUTSULAN\DESKTOP\TEST\DEPS\INCLUDE\SDL_HINTS.H
C:\USERS\KUTSULAN\DESKTOP\TEST\DEPS\INCLUDE\SDL_LOADSO.H
C:\USERS\KUTSULAN\DESKTOP\TEST\DEPS\INCLUDE\SDL_LOG.H
C:\USERS\KUTSULAN\DESKTOP\TEST\DEPS\INCLUDE\SDL_MESSAGEBOX.H
C:\USERS\KUTSULAN\DESKTOP\TEST\DEPS\INCLUDE\SDL_POWER.H
C:\USERS\KUTSULAN\DESKTOP\TEST\DEPS\INCLUDE\SDL_RENDER.H
C:\USERS\KUTSULAN\DESKTOP\TEST\DEPS\INCLUDE\SDL_SYSTEM.H
C:\USERS\KUTSULAN\DESKTOP\TEST\DEPS\INCLUDE\SDL_TIMER.H
C:\USERS\KUTSULAN\DESKTOP\TEST\DEPS\INCLUDE\SDL_VERSION.H
C:\USERS\KUTSULAN\DESKTOP\TEST\TEST\RECTANGLE.H
D:\GAMMING\GAME PROGRAMMING\VC\INCLUDE\VECTOR
C:\USERS\KUTSULAN\DESKTOP\TEST\DEPS\INCLUDE\SDL_MIXER.H
C:\USERS\KUTSULAN\DESKTOP\TEST\DEPS\INCLUDE\SDL_TYPES.H
^C:\USERS\KUTSULAN\DESKTOP\TEST\TEST\MAIN.CPP
C:\USERS\KUTSULAN\DESKTOP\TEST\DEPS\INCLUDE\SDL.H
C:\USERS\KUTSULAN\DESKTOP\TEST\DEPS\INCLUDE\SDL_MAIN.H
C:\USERS\KUTSULAN\DESKTOP\TEST\DEPS\INCLUDE\SDL_STDINC.H
C:\USERS\KUTSULAN\DESKTOP\TEST\DEPS\INCLUDE\SDL_CONFIG.H
C:\USERS\KUTSULAN\DESKTOP\TEST\DEPS\INCLUDE\SDL_PLATFORM.H
C:\PROGRAM FILES (X86)\WINDOWS KITS\8.1\INCLUDE\SHARED\WINAPIFAMILY.H
C:\USERS\KUTSULAN\DESKTOP\TEST\DEPS\INCLUDE\BEGIN_CODE.H
C:\USERS\KUTSULAN\DESKTOP\TEST\DEPS\INCLUDE\CLOSE_CODE.H
D:\GAMMING\GAME PROGRAMMING\VC\INCLUDE\STDDEF.H
D:\GAMMING\GAME PROGRAMMING\VC\INCLUDE\CRTDEFS.H
D:\GAMMING\GAME PROGRAMMING\VC\INCLUDE\SAL.H
D:\GAMMING\GAME PROGRAMMING\VC\INCLUDE\CONCURRENCYSAL.H
D:\GAMMING\GAME PROGRAMMING\VC\INCLUDE\VADEFS.H
D:\GAMMING\GAME PROGRAMMING\VC\INCLUDE\STDARG.H
C:\USERS\KUTSULAN\DESKTOP\TEST\DEPS\INCLUDE\SDL_ASSERT.H
C:\USERS\KUTSULAN\DESKTOP\TEST\DEPS\INCLUDE\SDL_ATOMIC.H
C:\USERS\KUTSULAN\DESKTOP\TEST\DEPS\INCLUDE\SDL_AUDIO.H
C:\USERS\KUTSULAN\DESKTOP\TEST\DEPS\INCLUDE\SDL_ERROR.H
C:\USERS\KUTSULAN\DESKTOP\TEST\DEPS\INCLUDE\SDL_ENDIAN.H
C:\USERS\KUTSULAN\DESKTOP\TEST\DEPS\INCLUDE\SDL_MUTEX.H
C:\USERS\KUTSULAN\DESKTOP\TEST\DEPS\INCLUDE\SDL_THREAD.H
D:\GAMMING\GAME PROGRAMMING\VC\INCLUDE\PROCESS.H
C:\USERS\KUTSULAN\DESKTOP\TEST\DEPS\INCLUDE\SDL_RWOPS.H
C:\USERS\KUTSULAN\DESKTOP\TEST\DEPS\INCLUDE\SDL_CLIPBOARD.H
C:\USERS\KUTSULAN\DESKTOP\TEST\DEPS\INCLUDE\SDL_CPUINFO.H
D:\GAMMING\GAME PROGRAMMING\VC\INCLUDE\INTRIN.H
D:\GAMMING\GAME PROGRAMMING\VC\INCLUDE\SETJMP.H
D:\GAMMING\GAME PROGRAMMING\VC\INCLUDE\IMMINTRIN.H
D:\GAMMING\GAME PROGRAMMING\VC\INCLUDE\WMMINTRIN.H
D:\GAMMING\GAME PROGRAMMING\VC\INCLUDE\NMMINTRIN.H
D:\GAMMING\GAME PROGRAMMING\VC\INCLUDE\SMMINTRIN.H
D:\GAMMING\GAME PROGRAMMING\VC\INCLUDE\TMMINTRIN.H
D:\GAMMING\GAME PROGRAMMING\VC\INCLUDE\PMMINTRIN.H
D:\GAMMING\GAME PROGRAMMING\VC\INCLUDE\EMMINTRIN.H
D:\GAMMING\GAME PROGRAMMING\VC\INCLUDE\XMMINTRIN.H
D:\GAMMING\GAME PROGRAMMING\VC\INCLUDE\MMINTRIN.H
D:\GAMMING\GAME PROGRAMMING\VC\INCLUDE\MALLOC.H
D:\GAMMING\GAME PROGRAMMING\VC\INCLUDE\AMMINTRIN.H
D:\GAMMING\GAME PROGRAMMING\VC\INCLUDE\MM3DNOW.H
C:\USERS\KUTSULAN\DESKTOP\TEST\DEPS\INCLUDE\SDL_EVENTS.H
C:\USERS\KUTSULAN\DESKTOP\TEST\DEPS\INCLUDE\SDL_VIDEO.H
C:\USERS\KUTSULAN\DESKTOP\TEST\DEPS\INCLUDE\SDL_PIXELS.H
C:\USERS\KUTSULAN\DESKTOP\TEST\DEPS\INCLUDE\SDL_RECT.H
C:\USERS\KUTSULAN\DESKTOP\TEST\DEPS\INCLUDE\SDL_SURFACE.H
C:\USERS\KUTSULAN\DESKTOP\TEST\DEPS\INCLUDE\SDL_BLENDMODE.H
C:\USERS\KUTSULAN\DESKTOP\TEST\DEPS\INCLUDE\SDL_KEYBOARD.H
C:\USERS\KUTSULAN\DESKTOP\TEST\DEPS\INCLUDE\SDL_KEYCODE.H
C:\USERS\KUTSULAN\DESKTOP\TEST\DEPS\INCLUDE\SDL_SCANCODE.H
C:\USERS\KUTSULAN\DESKTOP\TEST\DEPS\INCLUDE\SDL_MOUSE.H
C:\USERS\KUTSULAN\DESKTOP\TEST\DEPS\INCLUDE\SDL_JOYSTICK.H
C:\USERS\KUTSULAN\DESKTOP\TEST\DEPS\INCLUDE\SDL_GAMECONTROLLER.H
C:\USERS\KUTSULAN\DESKTOP\TEST\DEPS\INCLUDE\SDL_QUIT.H
C:\USERS\KUTSULAN\DESKTOP\TEST\DEPS\INCLUDE\SDL_GESTURE.H
C:\USERS\KUTSULAN\DESKTOP\TEST\DEPS\INCLUDE\SDL_TOUCH.H
C:\USERS\KUTSULAN\DESKTOP\TEST\DEPS\INCLUDE\SDL_FILESYSTEM.H
C:\USERS\KUTSULAN\DESKTOP\TEST\DEPS\INCLUDE\SDL_HAPTIC.H
C:\USERS\KUTSULAN\DESKTOP\TEST\DEPS\INCLUDE\SDL_HINTS.H
C:\USERS\KUTSULAN\DESKTOP\TEST\DEPS\INCLUDE\SDL_LOADSO.H
C:\USERS\KUTSULAN\DESKTOP\TEST\DEPS\INCLUDE\SDL_LOG.H
C:\USERS\KUTSULAN\DESKTOP\TEST\DEPS\INCLUDE\SDL_MESSAGEBOX.H
C:\USERS\KUTSULAN\DESKTOP\TEST\DEPS\INCLUDE\SDL_POWER.H
C:\USERS\KUTSULAN\DESKTOP\TEST\DEPS\INCLUDE\SDL_RENDER.H
C:\USERS\KUTSULAN\DESKTOP\TEST\DEPS\INCLUDE\SDL_SYSTEM.H
C:\USERS\KUTSULAN\DESKTOP\TEST\DEPS\INCLUDE\SDL_TIMER.H
C:\USERS\KUTSULAN\DESKTOP\TEST\DEPS\INCLUDE\SDL_VERSION.H
C:\USERS\KUTSULAN\DESKTOP\TEST\TEST\GAME.H
C:\USERS\KUTSULAN\DESKTOP\TEST\TEST\GRAPHICS.H
D:\GAMMING\GAME PROGRAMMING\VC\INCLUDE\STRING
D:\GAMMING\GAME PROGRAMMING\VC\INCLUDE\ITERATOR
D:\GAMMING\GAME PROGRAMMING\VC\INCLUDE\ISTREAM
D:\GAMMING\GAME PROGRAMMING\VC\INCLUDE\OSTREAM
D:\GAMMING\GAME PROGRAMMING\VC\INCLUDE\IOS
D:\GAMMING\GAME PROGRAMMING\VC\INCLUDE\XLOCNUM
D:\GAMMING\GAME PROGRAMMING\VC\INCLUDE\CLIMITS
D:\GAMMING\GAME PROGRAMMING\VC\INCLUDE\YVALS.H
D:\GAMMING\GAME PROGRAMMING\VC\INCLUDE\XKEYCHECK.H
D:\GAMMING\GAME PROGRAMMING\VC\INCLUDE\USE_ANSI.H
D:\GAMMING\GAME PROGRAMMING\VC\INCLUDE\LIMITS.H
D:\GAMMING\GAME PROGRAMMING\VC\INCLUDE\CMATH
D:\GAMMING\GAME PROGRAMMING\VC\INCLUDE\MATH.H
D:\GAMMING\GAME PROGRAMMING\VC\INCLUDE\XTGMATH.H
D:\GAMMING\GAME PROGRAMMING\VC\INCLUDE\XTR1COMMON
D:\GAMMING\GAME PROGRAMMING\VC\INCLUDE\CSTDIO
D:\GAMMING\GAME PROGRAMMING\VC\INCLUDE\STDIO.H
D:\GAMMING\GAME PROGRAMMING\VC\INCLUDE\SWPRINTF.INL
D:\GAMMING\GAME PROGRAMMING\VC\INCLUDE\CSTDLIB
D:\GAMMING\GAME PROGRAMMING\VC\INCLUDE\STDLIB.H
D:\GAMMING\GAME PROGRAMMING\VC\INCLUDE\STREAMBUF
D:\GAMMING\GAME PROGRAMMING\VC\INCLUDE\XIOSBASE
D:\GAMMING\GAME PROGRAMMING\VC\INCLUDE\XLOCALE
D:\GAMMING\GAME PROGRAMMING\VC\INCLUDE\CSTRING
D:\GAMMING\GAME PROGRAMMING\VC\INCLUDE\STRING.H
D:\GAMMING\GAME PROGRAMMING\VC\INCLUDE\STDEXCEPT
D:\GAMMING\GAME PROGRAMMING\VC\INCLUDE\EXCEPTION
D:\GAMMING\GAME PROGRAMMING\VC\INCLUDE\XSTDDEF
D:\GAMMING\GAME PROGRAMMING\VC\INCLUDE\CSTDDEF
D:\GAMMING\GAME PROGRAMMING\VC\INCLUDE\INITIALIZER_LIST
D:\GAMMING\GAME PROGRAMMING\VC\INCLUDE\EH.H
D:\GAMMING\GAME PROGRAMMING\VC\INCLUDE\XSTRING
D:\GAMMING\GAME PROGRAMMING\VC\INCLUDE\XMEMORY0
D:\GAMMING\GAME PROGRAMMING\VC\INCLUDE\LIMITS
D:\GAMMING\GAME PROGRAMMING\VC\INCLUDE\YMATH.H
D:\GAMMING\GAME PROGRAMMING\VC\INCLUDE\CFLOAT
D:\GAMMING\GAME PROGRAMMING\VC\INCLUDE\FLOAT.H
D:\GAMMING\GAME PROGRAMMING\VC\INCLUDE\CRTWRN.H
D:\GAMMING\GAME PROGRAMMING\VC\INCLUDE\CWCHAR
D:\GAMMING\GAME PROGRAMMING\VC\INCLUDE\WCHAR.H
D:\GAMMING\GAME PROGRAMMING\VC\INCLUDE\WTIME.INL
D:\GAMMING\GAME PROGRAMMING\VC\INCLUDE\NEW
D:\GAMMING\GAME PROGRAMMING\VC\INCLUDE\XUTILITY
D:\GAMMING\GAME PROGRAMMING\VC\INCLUDE\UTILITY
D:\GAMMING\GAME PROGRAMMING\VC\INCLUDE\IOSFWD
D:\GAMMING\GAME PROGRAMMING\VC\INCLUDE\CRTDBG.H
D:\GAMMING\GAME PROGRAMMING\VC\INCLUDE\TYPE_TRAITS
D:\GAMMING\GAME PROGRAMMING\VC\INCLUDE\XREFWRAP
D:\GAMMING\GAME PROGRAMMING\VC\INCLUDE\XATOMIC0.H
D:\GAMMING\GAME PROGRAMMING\VC\INCLUDE\TYPEINFO
D:\GAMMING\GAME PROGRAMMING\VC\INCLUDE\XLOCINFO
D:\GAMMING\GAME PROGRAMMING\VC\INCLUDE\XLOCINFO.H
D:\GAMMING\GAME PROGRAMMING\VC\INCLUDE\CTYPE.H
D:\GAMMING\GAME PROGRAMMING\VC\INCLUDE\LOCALE.H
D:\GAMMING\GAME PROGRAMMING\VC\INCLUDE\XDEBUG
D:\GAMMING\GAME PROGRAMMING\VC\INCLUDE\XMEMORY
D:\GAMMING\GAME PROGRAMMING\VC\INCLUDE\XFACET
D:\GAMMING\GAME PROGRAMMING\VC\INCLUDE\SYSTEM_ERROR
D:\GAMMING\GAME PROGRAMMING\VC\INCLUDE\CERRNO
D:\GAMMING\GAME PROGRAMMING\VC\INCLUDE\ERRNO.H
D:\GAMMING\GAME PROGRAMMING\VC\INCLUDE\SHARE.H
D:\GAMMING\GAME PROGRAMMING\VC\INCLUDE\MAP
D:\GAMMING\GAME PROGRAMMING\VC\INCLUDE\XTREE
D:\GAMMING\GAME PROGRAMMING\VC\INCLUDE\TUPLE
C:\USERS\KUTSULAN\DESKTOP\TEST\TEST\PLAYER.H
C:\USERS\KUTSULAN\DESKTOP\TEST\TEST\GLOBALS.H
C:\USERS\KUTSULAN\DESKTOP\TEST\TEST\ANIMATEDSPRITE.H
C:\USERS\KUTSULAN\DESKTOP\TEST\TEST\SPRITE.H
C:\USERS\KUTSULAN\DESKTOP\TEST\TEST\RECTANGLE.H
D:\GAMMING\GAME PROGRAMMING\VC\INCLUDE\VECTOR
C:\USERS\KUTSULAN\DESKTOP\TEST\TEST\LEVEL.H
C:\USERS\KUTSULAN\DESKTOP\TEST\TEST\TILE.H
^C:\USERS\KUTSULAN\DESKTOP\TEST\TEST\LEVEL.CPP
C:\USERS\KUTSULAN\DESKTOP\TEST\TEST\LEVEL.H
D:\GAMMING\GAME PROGRAMMING\VC\INCLUDE\STRING
D:\GAMMING\GAME PROGRAMMING\VC\INCLUDE\ITERATOR
D:\GAMMING\GAME PROGRAMMING\VC\INCLUDE\ISTREAM
D:\GAMMING\GAME PROGRAMMING\VC\INCLUDE\OSTREAM
D:\GAMMING\GAME PROGRAMMING\VC\INCLUDE\IOS
D:\GAMMING\GAME PROGRAMMING\VC\INCLUDE\XLOCNUM
D:\GAMMING\GAME PROGRAMMING\VC\INCLUDE\CLIMITS
D:\GAMMING\GAME PROGRAMMING\VC\INCLUDE\YVALS.H
D:\GAMMING\GAME PROGRAMMING\VC\INCLUDE\XKEYCHECK.H
D:\GAMMING\GAME PROGRAMMING\VC\INCLUDE\CRTDEFS.H
D:\GAMMING\GAME PROGRAMMING\VC\INCLUDE\SAL.H
D:\GAMMING\GAME PROGRAMMING\VC\INCLUDE\CONCURRENCYSAL.H
D:\GAMMING\GAME PROGRAMMING\VC\INCLUDE\VADEFS.H
D:\GAMMING\GAME PROGRAMMING\VC\INCLUDE\USE_ANSI.H
D:\GAMMING\GAME PROGRAMMING\VC\INCLUDE\LIMITS.H
D:\GAMMING\GAME PROGRAMMING\VC\INCLUDE\CMATH
D:\GAMMING\GAME PROGRAMMING\VC\INCLUDE\MATH.H
D:\GAMMING\GAME PROGRAMMING\VC\INCLUDE\XTGMATH.H
D:\GAMMING\GAME PROGRAMMING\VC\INCLUDE\XTR1COMMON
D:\GAMMING\GAME PROGRAMMING\VC\INCLUDE\CSTDIO
D:\GAMMING\GAME PROGRAMMING\VC\INCLUDE\STDIO.H
D:\GAMMING\GAME PROGRAMMING\VC\INCLUDE\SWPRINTF.INL
D:\GAMMING\GAME PROGRAMMING\VC\INCLUDE\CSTDLIB
D:\GAMMING\GAME PROGRAMMING\VC\INCLUDE\STDLIB.H
D:\GAMMING\GAME PROGRAMMING\VC\INCLUDE\STREAMBUF
D:\GAMMING\GAME PROGRAMMING\VC\INCLUDE\XIOSBASE
D:\GAMMING\GAME PROGRAMMING\VC\INCLUDE\XLOCALE
D:\GAMMING\GAME PROGRAMMING\VC\INCLUDE\CSTRING
D:\GAMMING\GAME PROGRAMMING\VC\INCLUDE\STRING.H
D:\GAMMING\GAME PROGRAMMING\VC\INCLUDE\STDEXCEPT
D:\GAMMING\GAME PROGRAMMING\VC\INCLUDE\EXCEPTION
D:\GAMMING\GAME PROGRAMMING\VC\INCLUDE\XSTDDEF
D:\GAMMING\GAME PROGRAMMING\VC\INCLUDE\CSTDDEF
D:\GAMMING\GAME PROGRAMMING\VC\INCLUDE\STDDEF.H
D:\GAMMING\GAME PROGRAMMING\VC\INCLUDE\INITIALIZER_LIST
D:\GAMMING\GAME PROGRAMMING\VC\INCLUDE\EH.H
D:\GAMMING\GAME PROGRAMMING\VC\INCLUDE\MALLOC.H
D:\GAMMING\GAME PROGRAMMING\VC\INCLUDE\XSTRING
D:\GAMMING\GAME PROGRAMMING\VC\INCLUDE\XMEMORY0
D:\GAMMING\GAME PROGRAMMING\VC\INCLUDE\LIMITS
D:\GAMMING\GAME PROGRAMMING\VC\INCLUDE\YMATH.H
D:\GAMMING\GAME PROGRAMMING\VC\INCLUDE\CFLOAT
D:\GAMMING\GAME PROGRAMMING\VC\INCLUDE\FLOAT.H
D:\GAMMING\GAME PROGRAMMING\VC\INCLUDE\CRTWRN.H
D:\GAMMING\GAME PROGRAMMING\VC\INCLUDE\CWCHAR
D:\GAMMING\GAME PROGRAMMING\VC\INCLUDE\WCHAR.H
D:\GAMMING\GAME PROGRAMMING\VC\INCLUDE\WTIME.INL
D:\GAMMING\GAME PROGRAMMING\VC\INCLUDE\NEW
D:\GAMMING\GAME PROGRAMMING\VC\INCLUDE\XUTILITY
D:\GAMMING\GAME PROGRAMMING\VC\INCLUDE\UTILITY
D:\GAMMING\GAME PROGRAMMING\VC\INCLUDE\IOSFWD
D:\GAMMING\GAME PROGRAMMING\VC\INCLUDE\CRTDBG.H
D:\GAMMING\GAME PROGRAMMING\VC\INCLUDE\TYPE_TRAITS
D:\GAMMING\GAME PROGRAMMING\VC\INCLUDE\XREFWRAP
D:\GAMMING\GAME PROGRAMMING\VC\INCLUDE\XATOMIC0.H
D:\GAMMING\GAME PROGRAMMING\VC\INCLUDE\INTRIN.H
D:\GAMMING\GAME PROGRAMMING\VC\INCLUDE\SETJMP.H
D:\GAMMING\GAME PROGRAMMING\VC\INCLUDE\IMMINTRIN.H
D:\GAMMING\GAME PROGRAMMING\VC\INCLUDE\WMMINTRIN.H
D:\GAMMING\GAME PROGRAMMING\VC\INCLUDE\NMMINTRIN.H
D:\GAMMING\GAME PROGRAMMING\VC\INCLUDE\SMMINTRIN.H
D:\GAMMING\GAME PROGRAMMING\VC\INCLUDE\TMMINTRIN.H
D:\GAMMING\GAME PROGRAMMING\VC\INCLUDE\PMMINTRIN.H
D:\GAMMING\GAME PROGRAMMING\VC\INCLUDE\EMMINTRIN.H
D:\GAMMING\GAME PROGRAMMING\VC\INCLUDE\XMMINTRIN.H
D:\GAMMING\GAME PROGRAMMING\VC\INCLUDE\MMINTRIN.H
D:\GAMMING\GAME PROGRAMMING\VC\INCLUDE\AMMINTRIN.H
D:\GAMMING\GAME PROGRAMMING\VC\INCLUDE\MM3DNOW.H
D:\GAMMING\GAME PROGRAMMING\VC\INCLUDE\TYPEINFO
D:\GAMMING\GAME PROGRAMMING\VC\INCLUDE\XLOCINFO
D:\GAMMING\GAME PROGRAMMING\VC\INCLUDE\XLOCINFO.H
D:\GAMMING\GAME PROGRAMMING\VC\INCLUDE\CTYPE.H
D:\GAMMING\GAME PROGRAMMING\VC\INCLUDE\LOCALE.H
D:\GAMMING\GAME PROGRAMMING\VC\INCLUDE\XDEBUG
D:\GAMMING\GAME PROGRAMMING\VC\INCLUDE\XMEMORY
D:\GAMMING\GAME PROGRAMMING\VC\INCLUDE\XFACET
D:\GAMMING\GAME PROGRAMMING\VC\INCLUDE\SYSTEM_ERROR
D:\GAMMING\GAME PROGRAMMING\VC\INCLUDE\CERRNO
D:\GAMMING\GAME PROGRAMMING\VC\INCLUDE\ERRNO.H
D:\GAMMING\GAME PROGRAMMING\VC\INCLUDE\SHARE.H
C:\USERS\KUTSULAN\DESKTOP\TEST\TEST\GLOBALS.H
C:\USERS\KUTSULAN\DESKTOP\TEST\TEST\TILE.H
C:\USERS\KUTSULAN\DESKTOP\TEST\TEST\RECTANGLE.H
D:\GAMMING\GAME PROGRAMMING\VC\INCLUDE\VECTOR
C:\USERS\KUTSULAN\DESKTOP\TEST\TEST\GRAPHICS.H
D:\GAMMING\GAME PROGRAMMING\VC\INCLUDE\MAP
D:\GAMMING\GAME PROGRAMMING\VC\INCLUDE\XTREE
D:\GAMMING\GAME PROGRAMMING\VC\INCLUDE\TUPLE
C:\USERS\KUTSULAN\DESKTOP\TEST\DEPS\INCLUDE\SDL.H
C:\USERS\KUTSULAN\DESKTOP\TEST\DEPS\INCLUDE\SDL_MAIN.H
C:\USERS\KUTSULAN\DESKTOP\TEST\DEPS\INCLUDE\SDL_STDINC.H
C:\USERS\KUTSULAN\DESKTOP\TEST\DEPS\INCLUDE\SDL_CONFIG.H
C:\USERS\KUTSULAN\DESKTOP\TEST\DEPS\INCLUDE\SDL_PLATFORM.H
C:\PROGRAM FILES (X86)\WINDOWS KITS\8.1\INCLUDE\SHARED\WINAPIFAMILY.H
C:\USERS\KUTSULAN\DESKTOP\TEST\DEPS\INCLUDE\BEGIN_CODE.H
C:\USERS\KUTSULAN\DESKTOP\TEST\DEPS\INCLUDE\CLOSE_CODE.H
D:\GAMMING\GAME PROGRAMMING\VC\INCLUDE\STDARG.H
C:\USERS\KUTSULAN\DESKTOP\TEST\DEPS\INCLUDE\SDL_ASSERT.H
C:\USERS\KUTSULAN\DESKTOP\TEST\DEPS\INCLUDE\SDL_ATOMIC.H
C:\USERS\KUTSULAN\DESKTOP\TEST\DEPS\INCLUDE\SDL_AUDIO.H
C:\USERS\KUTSULAN\DESKTOP\TEST\DEPS\INCLUDE\SDL_ERROR.H
C:\USERS\KUTSULAN\DESKTOP\TEST\DEPS\INCLUDE\SDL_ENDIAN.H
C:\USERS\KUTSULAN\DESKTOP\TEST\DEPS\INCLUDE\SDL_MUTEX.H
C:\USERS\KUTSULAN\DESKTOP\TEST\DEPS\INCLUDE\SDL_THREAD.H
D:\GAMMING\GAME PROGRAMMING\VC\INCLUDE\PROCESS.H
C:\USERS\KUTSULAN\DESKTOP\TEST\DEPS\INCLUDE\SDL_RWOPS.H
C:\USERS\KUTSULAN\DESKTOP\TEST\DEPS\INCLUDE\SDL_CLIPBOARD.H
C:\USERS\KUTSULAN\DESKTOP\TEST\DEPS\INCLUDE\SDL_CPUINFO.H
C:\USERS\KUTSULAN\DESKTOP\TEST\DEPS\INCLUDE\SDL_EVENTS.H
C:\USERS\KUTSULAN\DESKTOP\TEST\DEPS\INCLUDE\SDL_VIDEO.H
C:\USERS\KUTSULAN\DESKTOP\TEST\DEPS\INCLUDE\SDL_PIXELS.H
C:\USERS\KUTSULAN\DESKTOP\TEST\DEPS\INCLUDE\SDL_RECT.H
C:\USERS\KUTSULAN\DESKTOP\TEST\DEPS\INCLUDE\SDL_SURFACE.H
C:\USERS\KUTSULAN\DESKTOP\TEST\DEPS\INCLUDE\SDL_BLENDMODE.H
C:\USERS\KUTSULAN\DESKTOP\TEST\DEPS\INCLUDE\SDL_KEYBOARD.H
C:\USERS\KUTSULAN\DESKTOP\TEST\DEPS\INCLUDE\SDL_KEYCODE.H
C:\USERS\KUTSULAN\DESKTOP\TEST\DEPS\INCLUDE\SDL_SCANCODE.H
C:\USERS\KUTSULAN\DESKTOP\TEST\DEPS\INCLUDE\SDL_MOUSE.H
C:\USERS\KUTSULAN\DESKTOP\TEST\DEPS\INCLUDE\SDL_JOYSTICK.H
C:\USERS\KUTSULAN\DESKTOP\TEST\DEPS\INCLUDE\SDL_GAMECONTROLLER.H
C:\USERS\KUTSULAN\DESKTOP\TEST\DEPS\INCLUDE\SDL_QUIT.H
C:\USERS\KUTSULAN\DESKTOP\TEST\DEPS\INCLUDE\SDL_GESTURE.H
C:\USERS\KUTSULAN\DESKTOP\TEST\DEPS\INCLUDE\SDL_TOUCH.H
C:\USERS\KUTSULAN\DESKTOP\TEST\DEPS\INCLUDE\SDL_FILESYSTEM.H
C:\USERS\KUTSULAN\DESKTOP\TEST\DEPS\INCLUDE\SDL_HAPTIC.H
C:\USERS\KUTSULAN\DESKTOP\TEST\DEPS\INCLUDE\SDL_HINTS.H
C:\USERS\KUTSULAN\DESKTOP\TEST\DEPS\INCLUDE\SDL_LOADSO.H
C:\USERS\KUTSULAN\DESKTOP\TEST\DEPS\INCLUDE\SDL_LOG.H
C:\USERS\KUTSULAN\DESKTOP\TEST\DEPS\INCLUDE\SDL_MESSAGEBOX.H
C:\USERS\KUTSULAN\DESKTOP\TEST\DEPS\INCLUDE\SDL_POWER.H
C:\USERS\KUTSULAN\DESKTOP\TEST\DEPS\INCLUDE\SDL_RENDER.H
C:\USERS\KUTSULAN\DESKTOP\TEST\DEPS\INCLUDE\SDL_SYSTEM.H
C:\USERS\KUTSULAN\DESKTOP\TEST\DEPS\INCLUDE\SDL_TIMER.H
C:\USERS\KUTSULAN\DESKTOP\TEST\DEPS\INCLUDE\SDL_VERSION.H
C:\USERS\KUTSULAN\DESKTOP\TEST\TEST\TINYXML2.H
D:\GAMMING\GAME PROGRAMMING\VC\INCLUDE\CCTYPE
D:\GAMMING\GAME PROGRAMMING\VC\INCLUDE\STDINT.H
D:\GAMMING\GAME PROGRAMMING\VC\INCLUDE\SSTREAM
D:\GAMMING\GAME PROGRAMMING\VC\INCLUDE\ALGORITHM
^C:\USERS\KUTSULAN\DESKTOP\TEST\TEST\INPUT.CPP
C:\USERS\KUTSULAN\DESKTOP\TEST\TEST\INPUT.H
C:\USERS\KUTSULAN\DESKTOP\TEST\DEPS\INCLUDE\SDL.H
C:\USERS\KUTSULAN\DESKTOP\TEST\DEPS\INCLUDE\SDL_MAIN.H
C:\USERS\KUTSULAN\DESKTOP\TEST\DEPS\INCLUDE\SDL_STDINC.H
C:\USERS\KUTSULAN\DESKTOP\TEST\DEPS\INCLUDE\SDL_CONFIG.H
C:\USERS\KUTSULAN\DESKTOP\TEST\DEPS\INCLUDE\SDL_PLATFORM.H
C:\PROGRAM FILES (X86)\WINDOWS KITS\8.1\INCLUDE\SHARED\WINAPIFAMILY.H
C:\USERS\KUTSULAN\DESKTOP\TEST\DEPS\INCLUDE\BEGIN_CODE.H
C:\USERS\KUTSULAN\DESKTOP\TEST\DEPS\INCLUDE\CLOSE_CODE.H
D:\GAMMING\GAME PROGRAMMING\VC\INCLUDE\STDDEF.H
D:\GAMMING\GAME PROGRAMMING\VC\INCLUDE\CRTDEFS.H
D:\GAMMING\GAME PROGRAMMING\VC\INCLUDE\SAL.H
D:\GAMMING\GAME PROGRAMMING\VC\INCLUDE\CONCURRENCYSAL.H
D:\GAMMING\GAME PROGRAMMING\VC\INCLUDE\VADEFS.H
D:\GAMMING\GAME PROGRAMMING\VC\INCLUDE\STDARG.H
C:\USERS\KUTSULAN\DESKTOP\TEST\DEPS\INCLUDE\SDL_ASSERT.H
C:\USERS\KUTSULAN\DESKTOP\TEST\DEPS\INCLUDE\SDL_ATOMIC.H
C:\USERS\KUTSULAN\DESKTOP\TEST\DEPS\INCLUDE\SDL_AUDIO.H
C:\USERS\KUTSULAN\DESKTOP\TEST\DEPS\INCLUDE\SDL_ERROR.H
C:\USERS\KUTSULAN\DESKTOP\TEST\DEPS\INCLUDE\SDL_ENDIAN.H
C:\USERS\KUTSULAN\DESKTOP\TEST\DEPS\INCLUDE\SDL_MUTEX.H
C:\USERS\KUTSULAN\DESKTOP\TEST\DEPS\INCLUDE\SDL_THREAD.H
D:\GAMMING\GAME PROGRAMMING\VC\INCLUDE\PROCESS.H
C:\USERS\KUTSULAN\DESKTOP\TEST\DEPS\INCLUDE\SDL_RWOPS.H
C:\USERS\KUTSULAN\DESKTOP\TEST\DEPS\INCLUDE\SDL_CLIPBOARD.H
C:\USERS\KUTSULAN\DESKTOP\TEST\DEPS\INCLUDE\SDL_CPUINFO.H
D:\GAMMING\GAME PROGRAMMING\VC\INCLUDE\INTRIN.H
D:\GAMMING\GAME PROGRAMMING\VC\INCLUDE\SETJMP.H
D:\GAMMING\GAME PROGRAMMING\VC\INCLUDE\IMMINTRIN.H
D:\GAMMING\GAME PROGRAMMING\VC\INCLUDE\WMMINTRIN.H
D:\GAMMING\GAME PROGRAMMING\VC\INCLUDE\NMMINTRIN.H
D:\GAMMING\GAME PROGRAMMING\VC\INCLUDE\SMMINTRIN.H
D:\GAMMING\GAME PROGRAMMING\VC\INCLUDE\TMMINTRIN.H
D:\GAMMING\GAME PROGRAMMING\VC\INCLUDE\PMMINTRIN.H
D:\GAMMING\GAME PROGRAMMING\VC\INCLUDE\EMMINTRIN.H
D:\GAMMING\GAME PROGRAMMING\VC\INCLUDE\XMMINTRIN.H
D:\GAMMING\GAME PROGRAMMING\VC\INCLUDE\MMINTRIN.H
D:\GAMMING\GAME PROGRAMMING\VC\INCLUDE\MALLOC.H
D:\GAMMING\GAME PROGRAMMING\VC\INCLUDE\AMMINTRIN.H
D:\GAMMING\GAME PROGRAMMING\VC\INCLUDE\MM3DNOW.H
C:\USERS\KUTSULAN\DESKTOP\TEST\DEPS\INCLUDE\SDL_EVENTS.H
C:\USERS\KUTSULAN\DESKTOP\TEST\DEPS\INCLUDE\SDL_VIDEO.H
C:\USERS\KUTSULAN\DESKTOP\TEST\DEPS\INCLUDE\SDL_PIXELS.H
C:\USERS\KUTSULAN\DESKTOP\TEST\DEPS\INCLUDE\SDL_RECT.H
C:\USERS\KUTSULAN\DESKTOP\TEST\DEPS\INCLUDE\SDL_SURFACE.H
C:\USERS\KUTSULAN\DESKTOP\TEST\DEPS\INCLUDE\SDL_BLENDMODE.H
C:\USERS\KUTSULAN\DESKTOP\TEST\DEPS\INCLUDE\SDL_KEYBOARD.H
C:\USERS\KUTSULAN\DESKTOP\TEST\DEPS\INCLUDE\SDL_KEYCODE.H
C:\USERS\KUTSULAN\DESKTOP\TEST\DEPS\INCLUDE\SDL_SCANCODE.H
C:\USERS\KUTSULAN\DESKTOP\TEST\DEPS\INCLUDE\SDL_MOUSE.H
C:\USERS\KUTSULAN\DESKTOP\TEST\DEPS\INCLUDE\SDL_JOYSTICK.H
C:\USERS\KUTSULAN\DESKTOP\TEST\DEPS\INCLUDE\SDL_GAMECONTROLLER.H
C:\USERS\KUTSULAN\DESKTOP\TEST\DEPS\INCLUDE\SDL_QUIT.H
C:\USERS\KUTSULAN\DESKTOP\TEST\DEPS\INCLUDE\SDL_GESTURE.H
C:\USERS\KUTSULAN\DESKTOP\TEST\DEPS\INCLUDE\SDL_TOUCH.H
C:\USERS\KUTSULAN\DESKTOP\TEST\DEPS\INCLUDE\SDL_FILESYSTEM.H
C:\USERS\KUTSULAN\DESKTOP\TEST\DEPS\INCLUDE\SDL_HAPTIC.H
C:\USERS\KUTSULAN\DESKTOP\TEST\DEPS\INCLUDE\SDL_HINTS.H
C:\USERS\KUTSULAN\DESKTOP\TEST\DEPS\INCLUDE\SDL_LOADSO.H
C:\USERS\KUTSULAN\DESKTOP\TEST\DEPS\INCLUDE\SDL_LOG.H
C:\USERS\KUTSULAN\DESKTOP\TEST\DEPS\INCLUDE\SDL_MESSAGEBOX.H
C:\USERS\KUTSULAN\DESKTOP\TEST\DEPS\INCLUDE\SDL_POWER.H
C:\USERS\KUTSULAN\DESKTOP\TEST\DEPS\INCLUDE\SDL_RENDER.H
C:\USERS\KUTSULAN\DESKTOP\TEST\DEPS\INCLUDE\SDL_SYSTEM.H
C:\USERS\KUTSULAN\DESKTOP\TEST\DEPS\INCLUDE\SDL_TIMER.H
C:\USERS\KUTSULAN\DESKTOP\TEST\DEPS\INCLUDE\SDL_VERSION.H
D:\GAMMING\GAME PROGRAMMING\VC\INCLUDE\MAP
D:\GAMMING\GAME PROGRAMMING\VC\INCLUDE\XTREE
D:\GAMMING\GAME PROGRAMMING\VC\INCLUDE\XMEMORY
D:\GAMMING\GAME PROGRAMMING\VC\INCLUDE\XMEMORY0
D:\GAMMING\GAME PROGRAMMING\VC\INCLUDE\CSTDLIB
D:\GAMMING\GAME PROGRAMMING\VC\INCLUDE\YVALS.H
D:\GAMMING\GAME PROGRAMMING\VC\INCLUDE\XKEYCHECK.H
D:\GAMMING\GAME PROGRAMMING\VC\INCLUDE\USE_ANSI.H
D:\GAMMING\GAME PROGRAMMING\VC\INCLUDE\STDLIB.H
D:\GAMMING\GAME PROGRAMMING\VC\INCLUDE\LIMITS.H
D:\GAMMING\GAME PROGRAMMING\VC\INCLUDE\LIMITS
D:\GAMMING\GAME PROGRAMMING\VC\INCLUDE\YMATH.H
D:\GAMMING\GAME PROGRAMMING\VC\INCLUDE\CFLOAT
D:\GAMMING\GAME PROGRAMMING\VC\INCLUDE\FLOAT.H
D:\GAMMING\GAME PROGRAMMING\VC\INCLUDE\CRTWRN.H
D:\GAMMING\GAME PROGRAMMING\VC\INCLUDE\CLIMITS
D:\GAMMING\GAME PROGRAMMING\VC\INCLUDE\CMATH
D:\GAMMING\GAME PROGRAMMING\VC\INCLUDE\MATH.H
D:\GAMMING\GAME PROGRAMMING\VC\INCLUDE\XTGMATH.H
D:\GAMMING\GAME PROGRAMMING\VC\INCLUDE\XTR1COMMON
D:\GAMMING\GAME PROGRAMMING\VC\INCLUDE\CWCHAR
D:\GAMMING\GAME PROGRAMMING\VC\INCLUDE\WCHAR.H
D:\GAMMING\GAME PROGRAMMING\VC\INCLUDE\SWPRINTF.INL
D:\GAMMING\GAME PROGRAMMING\VC\INCLUDE\WTIME.INL
D:\GAMMING\GAME PROGRAMMING\VC\INCLUDE\XSTDDEF
D:\GAMMING\GAME PROGRAMMING\VC\INCLUDE\CSTDDEF
D:\GAMMING\GAME PROGRAMMING\VC\INCLUDE\INITIALIZER_LIST
D:\GAMMING\GAME PROGRAMMING\VC\INCLUDE\NEW
D:\GAMMING\GAME PROGRAMMING\VC\INCLUDE\EXCEPTION
D:\GAMMING\GAME PROGRAMMING\VC\INCLUDE\EH.H
D:\GAMMING\GAME PROGRAMMING\VC\INCLUDE\STRING.H
D:\GAMMING\GAME PROGRAMMING\VC\INCLUDE\XUTILITY
D:\GAMMING\GAME PROGRAMMING\VC\INCLUDE\UTILITY
D:\GAMMING\GAME PROGRAMMING\VC\INCLUDE\IOSFWD
D:\GAMMING\GAME PROGRAMMING\VC\INCLUDE\CSTDIO
D:\GAMMING\GAME PROGRAMMING\VC\INCLUDE\STDIO.H
D:\GAMMING\GAME PROGRAMMING\VC\INCLUDE\CSTRING
D:\GAMMING\GAME PROGRAMMING\VC\INCLUDE\CRTDBG.H
D:\GAMMING\GAME PROGRAMMING\VC\INCLUDE\TYPE_TRAITS
D:\GAMMING\GAME PROGRAMMING\VC\INCLUDE\XREFWRAP
D:\GAMMING\GAME PROGRAMMING\VC\INCLUDE\XATOMIC0.H
D:\GAMMING\GAME PROGRAMMING\VC\INCLUDE\STDEXCEPT
D:\GAMMING\GAME PROGRAMMING\VC\INCLUDE\XSTRING
D:\GAMMING\GAME PROGRAMMING\VC\INCLUDE\TUPLE
D:\GAMMING\GAME PROGRAMMING\VC\INCLUDE\VECTOR
^C:\USERS\KUTSULAN\DESKTOP\TEST\TEST\GRAPHICS.CPP
C:\USERS\KUTSULAN\DESKTOP\TEST\DEPS\INCLUDE\SDL.H
C:\USERS\KUTSULAN\DESKTOP\TEST\DEPS\INCLUDE\SDL_MAIN.H
C:\USERS\KUTSULAN\DESKTOP\TEST\DEPS\INCLUDE\SDL_STDINC.H
C:\USERS\KUTSULAN\DESKTOP\TEST\DEPS\INCLUDE\SDL_CONFIG.H
C:\USERS\KUTSULAN\DESKTOP\TEST\DEPS\INCLUDE\SDL_PLATFORM.H
C:\PROGRAM FILES (X86)\WINDOWS KITS\8.1\INCLUDE\SHARED\WINAPIFAMILY.H
C:\USERS\KUTSULAN\DESKTOP\TEST\DEPS\INCLUDE\BEGIN_CODE.H
C:\USERS\KUTSULAN\DESKTOP\TEST\DEPS\INCLUDE\CLOSE_CODE.H
D:\GAMMING\GAME PROGRAMMING\VC\INCLUDE\STDDEF.H
D:\GAMMING\GAME PROGRAMMING\VC\INCLUDE\CRTDEFS.H
D:\GAMMING\GAME PROGRAMMING\VC\INCLUDE\SAL.H
D:\GAMMING\GAME PROGRAMMING\VC\INCLUDE\CONCURRENCYSAL.H
D:\GAMMING\GAME PROGRAMMING\VC\INCLUDE\VADEFS.H
D:\GAMMING\GAME PROGRAMMING\VC\INCLUDE\STDARG.H
C:\USERS\KUTSULAN\DESKTOP\TEST\DEPS\INCLUDE\SDL_ASSERT.H
C:\USERS\KUTSULAN\DESKTOP\TEST\DEPS\INCLUDE\SDL_ATOMIC.H
C:\USERS\KUTSULAN\DESKTOP\TEST\DEPS\INCLUDE\SDL_AUDIO.H
C:\USERS\KUTSULAN\DESKTOP\TEST\DEPS\INCLUDE\SDL_ERROR.H
C:\USERS\KUTSULAN\DESKTOP\TEST\DEPS\INCLUDE\SDL_ENDIAN.H
C:\USERS\KUTSULAN\DESKTOP\TEST\DEPS\INCLUDE\SDL_MUTEX.H
C:\USERS\KUTSULAN\DESKTOP\TEST\DEPS\INCLUDE\SDL_THREAD.H
D:\GAMMING\GAME PROGRAMMING\VC\INCLUDE\PROCESS.H
C:\USERS\KUTSULAN\DESKTOP\TEST\DEPS\INCLUDE\SDL_RWOPS.H
C:\USERS\KUTSULAN\DESKTOP\TEST\DEPS\INCLUDE\SDL_CLIPBOARD.H
C:\USERS\KUTSULAN\DESKTOP\TEST\DEPS\INCLUDE\SDL_CPUINFO.H
D:\GAMMING\GAME PROGRAMMING\VC\INCLUDE\INTRIN.H
D:\GAMMING\GAME PROGRAMMING\VC\INCLUDE\SETJMP.H
D:\GAMMING\GAME PROGRAMMING\VC\INCLUDE\IMMINTRIN.H
D:\GAMMING\GAME PROGRAMMING\VC\INCLUDE\WMMINTRIN.H
D:\GAMMING\GAME PROGRAMMING\VC\INCLUDE\NMMINTRIN.H
D:\GAMMING\GAME PROGRAMMING\VC\INCLUDE\SMMINTRIN.H
D:\GAMMING\GAME PROGRAMMING\VC\INCLUDE\TMMINTRIN.H
D:\GAMMING\GAME PROGRAMMING\VC\INCLUDE\PMMINTRIN.H
D:\GAMMING\GAME PROGRAMMING\VC\INCLUDE\EMMINTRIN.H
D:\GAMMING\GAME PROGRAMMING\VC\INCLUDE\XMMINTRIN.H
D:\GAMMING\GAME PROGRAMMING\VC\INCLUDE\MMINTRIN.H
D:\GAMMING\GAME PROGRAMMING\VC\INCLUDE\MALLOC.H
D:\GAMMING\GAME PROGRAMMING\VC\INCLUDE\AMMINTRIN.H
D:\GAMMING\GAME PROGRAMMING\VC\INCLUDE\MM3DNOW.H
C:\USERS\KUTSULAN\DESKTOP\TEST\DEPS\INCLUDE\SDL_EVENTS.H
C:\USERS\KUTSULAN\DESKTOP\TEST\DEPS\INCLUDE\SDL_VIDEO.H
C:\USERS\KUTSULAN\DESKTOP\TEST\DEPS\INCLUDE\SDL_PIXELS.H
C:\USERS\KUTSULAN\DESKTOP\TEST\DEPS\INCLUDE\SDL_RECT.H
C:\USERS\KUTSULAN\DESKTOP\TEST\DEPS\INCLUDE\SDL_SURFACE.H
C:\USERS\KUTSULAN\DESKTOP\TEST\DEPS\INCLUDE\SDL_BLENDMODE.H
C:\USERS\KUTSULAN\DESKTOP\TEST\DEPS\INCLUDE\SDL_KEYBOARD.H
C:\USERS\KUTSULAN\DESKTOP\TEST\DEPS\INCLUDE\SDL_KEYCODE.H
C:\USERS\KUTSULAN\DESKTOP\TEST\DEPS\INCLUDE\SDL_SCANCODE.H
C:\USERS\KUTSULAN\DESKTOP\TEST\DEPS\INCLUDE\SDL_MOUSE.H
C:\USERS\KUTSULAN\DESKTOP\TEST\DEPS\INCLUDE\SDL_JOYSTICK.H
C:\USERS\KUTSULAN\DESKTOP\TEST\DEPS\INCLUDE\SDL_GAMECONTROLLER.H
C:\USERS\KUTSULAN\DESKTOP\TEST\DEPS\INCLUDE\SDL_QUIT.H
C:\USERS\KUTSULAN\DESKTOP\TEST\DEPS\INCLUDE\SDL_GESTURE.H
C:\USERS\KUTSULAN\DESKTOP\TEST\DEPS\INCLUDE\SDL_TOUCH.H
C:\USERS\KUTSULAN\DESKTOP\TEST\DEPS\INCLUDE\SDL_FILESYSTEM.H
C:\USERS\KUTSULAN\DESKTOP\TEST\DEPS\INCLUDE\SDL_HAPTIC.H
C:\USERS\KUTSULAN\DESKTOP\TEST\DEPS\INCLUDE\SDL_HINTS.H
C:\USERS\KUTSULAN\DESKTOP\TEST\DEPS\INCLUDE\SDL_LOADSO.H
C:\USERS\KUTSULAN\DESKTOP\TEST\DEPS\INCLUDE\SDL_LOG.H
C:\USERS\KUTSULAN\DESKTOP\TEST\DEPS\INCLUDE\SDL_MESSAGEBOX.H
C:\USERS\KUTSULAN\DESKTOP\TEST\DEPS\INCLUDE\SDL_POWER.H
C:\USERS\KUTSULAN\DESKTOP\TEST\DEPS\INCLUDE\SDL_RENDER.H
C:\USERS\KUTSULAN\DESKTOP\TEST\DEPS\INCLUDE\SDL_SYSTEM.H
C:\USERS\KUTSULAN\DESKTOP\TEST\DEPS\INCLUDE\SDL_TIMER.H
C:\USERS\KUTSULAN\DESKTOP\TEST\DEPS\INCLUDE\SDL_VERSION.H
C:\USERS\KUTSULAN\DESKTOP\TEST\TEST\GRAPHICS.H
D:\GAMMING\GAME PROGRAMMING\VC\INCLUDE\STRING
D:\GAMMING\GAME PROGRAMMING\VC\INCLUDE\ITERATOR
D:\GAMMING\GAME PROGRAMMING\VC\INCLUDE\ISTREAM
D:\GAMMING\GAME PROGRAMMING\VC\INCLUDE\OSTREAM
D:\GAMMING\GAME PROGRAMMING\VC\INCLUDE\IOS
D:\GAMMING\GAME PROGRAMMING\VC\INCLUDE\XLOCNUM
D:\GAMMING\GAME PROGRAMMING\VC\INCLUDE\CLIMITS
D:\GAMMING\GAME PROGRAMMING\VC\INCLUDE\YVALS.H
D:\GAMMING\GAME PROGRAMMING\VC\INCLUDE\XKEYCHECK.H
D:\GAMMING\GAME PROGRAMMING\VC\INCLUDE\USE_ANSI.H
D:\GAMMING\GAME PROGRAMMING\VC\INCLUDE\LIMITS.H
D:\GAMMING\GAME PROGRAMMING\VC\INCLUDE\CMATH
D:\GAMMING\GAME PROGRAMMING\VC\INCLUDE\MATH.H
D:\GAMMING\GAME PROGRAMMING\VC\INCLUDE\XTGMATH.H
D:\GAMMING\GAME PROGRAMMING\VC\INCLUDE\XTR1COMMON
D:\GAMMING\GAME PROGRAMMING\VC\INCLUDE\CSTDIO
D:\GAMMING\GAME PROGRAMMING\VC\INCLUDE\STDIO.H
D:\GAMMING\GAME PROGRAMMING\VC\INCLUDE\SWPRINTF.INL
D:\GAMMING\GAME PROGRAMMING\VC\INCLUDE\CSTDLIB
D:\GAMMING\GAME PROGRAMMING\VC\INCLUDE\STDLIB.H
D:\GAMMING\GAME PROGRAMMING\VC\INCLUDE\STREAMBUF
D:\GAMMING\GAME PROGRAMMING\VC\INCLUDE\XIOSBASE
D:\GAMMING\GAME PROGRAMMING\VC\INCLUDE\XLOCALE
D:\GAMMING\GAME PROGRAMMING\VC\INCLUDE\CSTRING
D:\GAMMING\GAME PROGRAMMING\VC\INCLUDE\STRING.H
D:\GAMMING\GAME PROGRAMMING\VC\INCLUDE\STDEXCEPT
D:\GAMMING\GAME PROGRAMMING\VC\INCLUDE\EXCEPTION
D:\GAMMING\GAME PROGRAMMING\VC\INCLUDE\XSTDDEF
D:\GAMMING\GAME PROGRAMMING\VC\INCLUDE\CSTDDEF
D:\GAMMING\GAME PROGRAMMING\VC\INCLUDE\INITIALIZER_LIST
D:\GAMMING\GAME PROGRAMMING\VC\INCLUDE\EH.H
D:\GAMMING\GAME PROGRAMMING\VC\INCLUDE\XSTRING
D:\GAMMING\GAME PROGRAMMING\VC\INCLUDE\XMEMORY0
D:\GAMMING\GAME PROGRAMMING\VC\INCLUDE\LIMITS
D:\GAMMING\GAME PROGRAMMING\VC\INCLUDE\YMATH.H
D:\GAMMING\GAME PROGRAMMING\VC\INCLUDE\CFLOAT
D:\GAMMING\GAME PROGRAMMING\VC\INCLUDE\FLOAT.H
D:\GAMMING\GAME PROGRAMMING\VC\INCLUDE\CRTWRN.H
D:\GAMMING\GAME PROGRAMMING\VC\INCLUDE\CWCHAR
D:\GAMMING\GAME PROGRAMMING\VC\INCLUDE\WCHAR.H
D:\GAMMING\GAME PROGRAMMING\VC\INCLUDE\WTIME.INL
D:\GAMMING\GAME PROGRAMMING\VC\INCLUDE\NEW
D:\GAMMING\GAME PROGRAMMING\VC\INCLUDE\XUTILITY
D:\GAMMING\GAME PROGRAMMING\VC\INCLUDE\UTILITY
D:\GAMMING\GAME PROGRAMMING\VC\INCLUDE\IOSFWD
D:\GAMMING\GAME PROGRAMMING\VC\INCLUDE\CRTDBG.H
D:\GAMMING\GAME PROGRAMMING\VC\INCLUDE\TYPE_TRAITS
D:\GAMMING\GAME PROGRAMMING\VC\INCLUDE\XREFWRAP
D:\GAMMING\GAME PROGRAMMING\VC\INCLUDE\XATOMIC0.H
D:\GAMMING\GAME PROGRAMMING\VC\INCLUDE\TYPEINFO
D:\GAMMING\GAME PROGRAMMING\VC\INCLUDE\XLOCINFO
D:\GAMMING\GAME PROGRAMMING\VC\INCLUDE\XLOCINFO.H
D:\GAMMING\GAME PROGRAMMING\VC\INCLUDE\CTYPE.H
D:\GAMMING\GAME PROGRAMMING\VC\INCLUDE\LOCALE.H
D:\GAMMING\GAME PROGRAMMING\VC\INCLUDE\XDEBUG
D:\GAMMING\GAME PROGRAMMING\VC\INCLUDE\XMEMORY
D:\GAMMING\GAME PROGRAMMING\VC\INCLUDE\XFACET
D:\GAMMING\GAME PROGRAMMING\VC\INCLUDE\SYSTEM_ERROR
D:\GAMMING\GAME PROGRAMMING\VC\INCLUDE\CERRNO
D:\GAMMING\GAME PROGRAMMING\VC\INCLUDE\ERRNO.H
D:\GAMMING\GAME PROGRAMMING\VC\INCLUDE\SHARE.H
D:\GAMMING\GAME PROGRAMMING\VC\INCLUDE\MAP
D:\GAMMING\GAME PROGRAMMING\VC\INCLUDE\XTREE
D:\GAMMING\GAME PROGRAMMING\VC\INCLUDE\TUPLE
C:\USERS\KUTSULAN\DESKTOP\TEST\TEST\GLOBALS.H
C:\USERS\KUTSULAN\DESKTOP\TEST\DEPS\INCLUDE\SDL_IMAGE.H
^C:\USERS\KUTSULAN\DESKTOP\TEST\TEST\GAME.CPP
C:\USERS\KUTSULAN\DESKTOP\TEST\DEPS\INCLUDE\SDL.H
C:\USERS\KUTSULAN\DESKTOP\TEST\DEPS\INCLUDE\SDL_MAIN.H
C:\USERS\KUTSULAN\DESKTOP\TEST\DEPS\INCLUDE\SDL_STDINC.H
C:\USERS\KUTSULAN\DESKTOP\TEST\DEPS\INCLUDE\SDL_CONFIG.H
C:\USERS\KUTSULAN\DESKTOP\TEST\DEPS\INCLUDE\SDL_PLATFORM.H
C:\PROGRAM FILES (X86)\WINDOWS KITS\8.1\INCLUDE\SHARED\WINAPIFAMILY.H
C:\USERS\KUTSULAN\DESKTOP\TEST\DEPS\INCLUDE\BEGIN_CODE.H
C:\USERS\KUTSULAN\DESKTOP\TEST\DEPS\INCLUDE\CLOSE_CODE.H
D:\GAMMING\GAME PROGRAMMING\VC\INCLUDE\STDDEF.H
D:\GAMMING\GAME PROGRAMMING\VC\INCLUDE\CRTDEFS.H
D:\GAMMING\GAME PROGRAMMING\VC\INCLUDE\SAL.H
D:\GAMMING\GAME PROGRAMMING\VC\INCLUDE\CONCURRENCYSAL.H
D:\GAMMING\GAME PROGRAMMING\VC\INCLUDE\VADEFS.H
D:\GAMMING\GAME PROGRAMMING\VC\INCLUDE\STDARG.H
C:\USERS\KUTSULAN\DESKTOP\TEST\DEPS\INCLUDE\SDL_ASSERT.H
C:\USERS\KUTSULAN\DESKTOP\TEST\DEPS\INCLUDE\SDL_ATOMIC.H
C:\USERS\KUTSULAN\DESKTOP\TEST\DEPS\INCLUDE\SDL_AUDIO.H
C:\USERS\KUTSULAN\DESKTOP\TEST\DEPS\INCLUDE\SDL_ERROR.H
C:\USERS\KUTSULAN\DESKTOP\TEST\DEPS\INCLUDE\SDL_ENDIAN.H
C:\USERS\KUTSULAN\DESKTOP\TEST\DEPS\INCLUDE\SDL_MUTEX.H
C:\USERS\KUTSULAN\DESKTOP\TEST\DEPS\INCLUDE\SDL_THREAD.H
D:\GAMMING\GAME PROGRAMMING\VC\INCLUDE\PROCESS.H
C:\USERS\KUTSULAN\DESKTOP\TEST\DEPS\INCLUDE\SDL_RWOPS.H
C:\USERS\KUTSULAN\DESKTOP\TEST\DEPS\INCLUDE\SDL_CLIPBOARD.H
C:\USERS\KUTSULAN\DESKTOP\TEST\DEPS\INCLUDE\SDL_CPUINFO.H
D:\GAMMING\GAME PROGRAMMING\VC\INCLUDE\INTRIN.H
D:\GAMMING\GAME PROGRAMMING\VC\INCLUDE\SETJMP.H
D:\GAMMING\GAME PROGRAMMING\VC\INCLUDE\IMMINTRIN.H
D:\GAMMING\GAME PROGRAMMING\VC\INCLUDE\WMMINTRIN.H
D:\GAMMING\GAME PROGRAMMING\VC\INCLUDE\NMMINTRIN.H
D:\GAMMING\GAME PROGRAMMING\VC\INCLUDE\SMMINTRIN.H
D:\GAMMING\GAME PROGRAMMING\VC\INCLUDE\TMMINTRIN.H
D:\GAMMING\GAME PROGRAMMING\VC\INCLUDE\PMMINTRIN.H
D:\GAMMING\GAME PROGRAMMING\VC\INCLUDE\EMMINTRIN.H
D:\GAMMING\GAME PROGRAMMING\VC\INCLUDE\XMMINTRIN.H
D:\GAMMING\GAME PROGRAMMING\VC\INCLUDE\MMINTRIN.H
D:\GAMMING\GAME PROGRAMMING\VC\INCLUDE\MALLOC.H
D:\GAMMING\GAME PROGRAMMING\VC\INCLUDE\AMMINTRIN.H
D:\GAMMING\GAME PROGRAMMING\VC\INCLUDE\MM3DNOW.H
C:\USERS\KUTSULAN\DESKTOP\TEST\DEPS\INCLUDE\SDL_EVENTS.H
C:\USERS\KUTSULAN\DESKTOP\TEST\DEPS\INCLUDE\SDL_VIDEO.H
C:\USERS\KUTSULAN\DESKTOP\TEST\DEPS\INCLUDE\SDL_PIXELS.H
C:\USERS\KUTSULAN\DESKTOP\TEST\DEPS\INCLUDE\SDL_RECT.H
C:\USERS\KUTSULAN\DESKTOP\TEST\DEPS\INCLUDE\SDL_SURFACE.H
C:\USERS\KUTSULAN\DESKTOP\TEST\DEPS\INCLUDE\SDL_BLENDMODE.H
C:\USERS\KUTSULAN\DESKTOP\TEST\DEPS\INCLUDE\SDL_KEYBOARD.H
C:\USERS\KUTSULAN\DESKTOP\TEST\DEPS\INCLUDE\SDL_KEYCODE.H
C:\USERS\KUTSULAN\DESKTOP\TEST\DEPS\INCLUDE\SDL_SCANCODE.H
C:\USERS\KUTSULAN\DESKTOP\TEST\DEPS\INCLUDE\SDL_MOUSE.H
C:\USERS\KUTSULAN\DESKTOP\TEST\DEPS\INCLUDE\SDL_JOYSTICK.H
C:\USERS\KUTSULAN\DESKTOP\TEST\DEPS\INCLUDE\SDL_GAMECONTROLLER.H
C:\USERS\KUTSULAN\DESKTOP\TEST\DEPS\INCLUDE\SDL_QUIT.H
C:\USERS\KUTSULAN\DESKTOP\TEST\DEPS\INCLUDE\SDL_GESTURE.H
C:\USERS\KUTSULAN\DESKTOP\TEST\DEPS\INCLUDE\SDL_TOUCH.H
C:\USERS\KUTSULAN\DESKTOP\TEST\DEPS\INCLUDE\SDL_FILESYSTEM.H
C:\USERS\KUTSULAN\DESKTOP\TEST\DEPS\INCLUDE\SDL_HAPTIC.H
C:\USERS\KUTSULAN\DESKTOP\TEST\DEPS\INCLUDE\SDL_HINTS.H
C:\USERS\KUTSULAN\DESKTOP\TEST\DEPS\INCLUDE\SDL_LOADSO.H
C:\USERS\KUTSULAN\DESKTOP\TEST\DEPS\INCLUDE\SDL_LOG.H
C:\USERS\KUTSULAN\DESKTOP\TEST\DEPS\INCLUDE\SDL_MESSAGEBOX.H
C:\USERS\KUTSULAN\DESKTOP\TEST\DEPS\INCLUDE\SDL_POWER.H
C:\USERS\KUTSULAN\DESKTOP\TEST\DEPS\INCLUDE\SDL_RENDER.H
C:\USERS\KUTSULAN\DESKTOP\TEST\DEPS\INCLUDE\SDL_SYSTEM.H
C:\USERS\KUTSULAN\DESKTOP\TEST\DEPS\INCLUDE\SDL_TIMER.H
C:\USERS\KUTSULAN\DESKTOP\TEST\DEPS\INCLUDE\SDL_VERSION.H
C:\USERS\KUTSULAN\DESKTOP\TEST\TEST\GAME.H
C:\USERS\KUTSULAN\DESKTOP\TEST\TEST\GRAPHICS.H
D:\GAMMING\GAME PROGRAMMING\VC\INCLUDE\STRING
D:\GAMMING\GAME PROGRAMMING\VC\INCLUDE\ITERATOR
D:\GAMMING\GAME PROGRAMMING\VC\INCLUDE\ISTREAM
D:\GAMMING\GAME PROGRAMMING\VC\INCLUDE\OSTREAM
D:\GAMMING\GAME PROGRAMMING\VC\INCLUDE\IOS
D:\GAMMING\GAME PROGRAMMING\VC\INCLUDE\XLOCNUM
D:\GAMMING\GAME PROGRAMMING\VC\INCLUDE\CLIMITS
D:\GAMMING\GAME PROGRAMMING\VC\INCLUDE\YVALS.H
D:\GAMMING\GAME PROGRAMMING\VC\INCLUDE\XKEYCHECK.H
D:\GAMMING\GAME PROGRAMMING\VC\INCLUDE\USE_ANSI.H
D:\GAMMING\GAME PROGRAMMING\VC\INCLUDE\LIMITS.H
D:\GAMMING\GAME PROGRAMMING\VC\INCLUDE\CMATH
D:\GAMMING\GAME PROGRAMMING\VC\INCLUDE\MATH.H
D:\GAMMING\GAME PROGRAMMING\VC\INCLUDE\XTGMATH.H
D:\GAMMING\GAME PROGRAMMING\VC\INCLUDE\XTR1COMMON
D:\GAMMING\GAME PROGRAMMING\VC\INCLUDE\CSTDIO
D:\GAMMING\GAME PROGRAMMING\VC\INCLUDE\STDIO.H
D:\GAMMING\GAME PROGRAMMING\VC\INCLUDE\SWPRINTF.INL
D:\GAMMING\GAME PROGRAMMING\VC\INCLUDE\CSTDLIB
D:\GAMMING\GAME PROGRAMMING\VC\INCLUDE\STDLIB.H
D:\GAMMING\GAME PROGRAMMING\VC\INCLUDE\STREAMBUF
D:\GAMMING\GAME PROGRAMMING\VC\INCLUDE\XIOSBASE
D:\GAMMING\GAME PROGRAMMING\VC\INCLUDE\XLOCALE
D:\GAMMING\GAME PROGRAMMING\VC\INCLUDE\CSTRING
D:\GAMMING\GAME PROGRAMMING\VC\INCLUDE\STRING.H
D:\GAMMING\GAME PROGRAMMING\VC\INCLUDE\STDEXCEPT
D:\GAMMING\GAME PROGRAMMING\VC\INCLUDE\EXCEPTION
D:\GAMMING\GAME PROGRAMMING\VC\INCLUDE\XSTDDEF
D:\GAMMING\GAME PROGRAMMING\VC\INCLUDE\CSTDDEF
D:\GAMMING\GAME PROGRAMMING\VC\INCLUDE\INITIALIZER_LIST
D:\GAMMING\GAME PROGRAMMING\VC\INCLUDE\EH.H
D:\GAMMING\GAME PROGRAMMING\VC\INCLUDE\XSTRING
D:\GAMMING\GAME PROGRAMMING\VC\INCLUDE\XMEMORY0
D:\GAMMING\GAME PROGRAMMING\VC\INCLUDE\LIMITS
D:\GAMMING\GAME PROGRAMMING\VC\INCLUDE\YMATH.H
D:\GAMMING\GAME PROGRAMMING\VC\INCLUDE\CFLOAT
D:\GAMMING\GAME PROGRAMMING\VC\INCLUDE\FLOAT.H
D:\GAMMING\GAME PROGRAMMING\VC\INCLUDE\CRTWRN.H
D:\GAMMING\GAME PROGRAMMING\VC\INCLUDE\CWCHAR
D:\GAMMING\GAME PROGRAMMING\VC\INCLUDE\WCHAR.H
D:\GAMMING\GAME PROGRAMMING\VC\INCLUDE\WTIME.INL
D:\GAMMING\GAME PROGRAMMING\VC\INCLUDE\NEW
D:\GAMMING\GAME PROGRAMMING\VC\INCLUDE\XUTILITY
D:\GAMMING\GAME PROGRAMMING\VC\INCLUDE\UTILITY
D:\GAMMING\GAME PROGRAMMING\VC\INCLUDE\IOSFWD
D:\GAMMING\GAME PROGRAMMING\VC\INCLUDE\CRTDBG.H
D:\GAMMING\GAME PROGRAMMING\VC\INCLUDE\TYPE_TRAITS
D:\GAMMING\GAME PROGRAMMING\VC\INCLUDE\XREFWRAP
D:\GAMMING\GAME PROGRAMMING\VC\INCLUDE\XATOMIC0.H
D:\GAMMING\GAME PROGRAMMING\VC\INCLUDE\TYPEINFO
D:\GAMMING\GAME PROGRAMMING\VC\INCLUDE\XLOCINFO
D:\GAMMING\GAME PROGRAMMING\VC\INCLUDE\XLOCINFO.H
D:\GAMMING\GAME PROGRAMMING\VC\INCLUDE\CTYPE.H
D:\GAMMING\GAME PROGRAMMING\VC\INCLUDE\LOCALE.H
D:\GAMMING\GAME PROGRAMMING\VC\INCLUDE\XDEBUG
D:\GAMMING\GAME PROGRAMMING\VC\INCLUDE\XMEMORY
D:\GAMMING\GAME PROGRAMMING\VC\INCLUDE\XFACET
D:\GAMMING\GAME PROGRAMMING\VC\INCLUDE\SYSTEM_ERROR
D:\GAMMING\GAME PROGRAMMING\VC\INCLUDE\CERRNO
D:\GAMMING\GAME PROGRAMMING\VC\INCLUDE\ERRNO.H
D:\GAMMING\GAME PROGRAMMING\VC\INCLUDE\SHARE.H
D:\GAMMING\GAME PROGRAMMING\VC\INCLUDE\MAP
D:\GAMMING\GAME PROGRAMMING\VC\INCLUDE\XTREE
D:\GAMMING\GAME PROGRAMMING\VC\INCLUDE\TUPLE
C:\USERS\KUTSULAN\DESKTOP\TEST\TEST\PLAYER.H
C:\USERS\KUTSULAN\DESKTOP\TEST\TEST\GLOBALS.H
C:\USERS\KUTSULAN\DESKTOP\TEST\TEST\ANIMATEDSPRITE.H
C:\USERS\KUTSULAN\DESKTOP\TEST\TEST\SPRITE.H
C:\USERS\KUTSULAN\DESKTOP\TEST\TEST\RECTANGLE.H
D:\GAMMING\GAME PROGRAMMING\VC\INCLUDE\VECTOR
C:\USERS\KUTSULAN\DESKTOP\TEST\TEST\LEVEL.H
C:\USERS\KUTSULAN\DESKTOP\TEST\TEST\TILE.H
C:\USERS\KUTSULAN\DESKTOP\TEST\TEST\INPUT.H
D:\GAMMING\GAME PROGRAMMING\VC\INCLUDE\ALGORITHM
C:\USERS\KUTSULAN\DESKTOP\TEST\DEPS\INCLUDE\SDL_MIXER.H
C:\USERS\KUTSULAN\DESKTOP\TEST\DEPS\INCLUDE\SDL_TYPES.H
D:\GAMMING\GAME PROGRAMMING\VC\BIN\1033\CLUI.DLL
C:\WINDOWS\GLOBALIZATION\SORTING\SORTDEFAULT.NLS
C:\WINDOWS\SYSTEM32\TZRES.DLL
D:\GAMMING\GAME PROGRAMMING\VC\BIN\MSPDBSRV.EXE
^C:\USERS\KUTSULAN\DESKTOP\TEST\TEST\ANIMATEDSPRITE.CPP
C:\USERS\KUTSULAN\DESKTOP\TEST\TEST\ANIMATEDSPRITE.H
C:\USERS\KUTSULAN\DESKTOP\TEST\TEST\SPRITE.H
C:\USERS\KUTSULAN\DESKTOP\TEST\TEST\GRAPHICS.H
D:\GAMMING\GAME PROGRAMMING\VC\INCLUDE\STRING
D:\GAMMING\GAME PROGRAMMING\VC\INCLUDE\ITERATOR
D:\GAMMING\GAME PROGRAMMING\VC\INCLUDE\ISTREAM
D:\GAMMING\GAME PROGRAMMING\VC\INCLUDE\OSTREAM
D:\GAMMING\GAME PROGRAMMING\VC\INCLUDE\IOS
D:\GAMMING\GAME PROGRAMMING\VC\INCLUDE\XLOCNUM
D:\GAMMING\GAME PROGRAMMING\VC\INCLUDE\CLIMITS
D:\GAMMING\GAME PROGRAMMING\VC\INCLUDE\YVALS.H
D:\GAMMING\GAME PROGRAMMING\VC\INCLUDE\XKEYCHECK.H
D:\GAMMING\GAME PROGRAMMING\VC\INCLUDE\CRTDEFS.H
D:\GAMMING\GAME PROGRAMMING\VC\INCLUDE\SAL.H
D:\GAMMING\GAME PROGRAMMING\VC\INCLUDE\CONCURRENCYSAL.H
D:\GAMMING\GAME PROGRAMMING\VC\INCLUDE\VADEFS.H
D:\GAMMING\GAME PROGRAMMING\VC\INCLUDE\USE_ANSI.H
D:\GAMMING\GAME PROGRAMMING\VC\INCLUDE\LIMITS.H
D:\GAMMING\GAME PROGRAMMING\VC\INCLUDE\CMATH
D:\GAMMING\GAME PROGRAMMING\VC\INCLUDE\MATH.H
D:\GAMMING\GAME PROGRAMMING\VC\INCLUDE\XTGMATH.H
D:\GAMMING\GAME PROGRAMMING\VC\INCLUDE\XTR1COMMON
D:\GAMMING\GAME PROGRAMMING\VC\INCLUDE\CSTDIO
D:\GAMMING\GAME PROGRAMMING\VC\INCLUDE\STDIO.H
D:\GAMMING\GAME PROGRAMMING\VC\INCLUDE\SWPRINTF.INL
D:\GAMMING\GAME PROGRAMMING\VC\INCLUDE\CSTDLIB
D:\GAMMING\GAME PROGRAMMING\VC\INCLUDE\STDLIB.H
D:\GAMMING\GAME PROGRAMMING\VC\INCLUDE\STREAMBUF
D:\GAMMING\GAME PROGRAMMING\VC\INCLUDE\XIOSBASE
D:\GAMMING\GAME PROGRAMMING\VC\INCLUDE\XLOCALE
D:\GAMMING\GAME PROGRAMMING\VC\INCLUDE\CSTRING
D:\GAMMING\GAME PROGRAMMING\VC\INCLUDE\STRING.H
D:\GAMMING\GAME PROGRAMMING\VC\INCLUDE\STDEXCEPT
D:\GAMMING\GAME PROGRAMMING\VC\INCLUDE\EXCEPTION
D:\GAMMING\GAME PROGRAMMING\VC\INCLUDE\XSTDDEF
D:\GAMMING\GAME PROGRAMMING\VC\INCLUDE\CSTDDEF
D:\GAMMING\GAME PROGRAMMING\VC\INCLUDE\STDDEF.H
D:\GAMMING\GAME PROGRAMMING\VC\INCLUDE\INITIALIZER_LIST
D:\GAMMING\GAME PROGRAMMING\VC\INCLUDE\EH.H
D:\GAMMING\GAME PROGRAMMING\VC\INCLUDE\MALLOC.H
D:\GAMMING\GAME PROGRAMMING\VC\INCLUDE\XSTRING
D:\GAMMING\GAME PROGRAMMING\VC\INCLUDE\XMEMORY0
D:\GAMMING\GAME PROGRAMMING\VC\INCLUDE\LIMITS
D:\GAMMING\GAME PROGRAMMING\VC\INCLUDE\YMATH.H
D:\GAMMING\GAME PROGRAMMING\VC\INCLUDE\CFLOAT
D:\GAMMING\GAME PROGRAMMING\VC\INCLUDE\FLOAT.H
D:\GAMMING\GAME PROGRAMMING\VC\INCLUDE\CRTWRN.H
D:\GAMMING\GAME PROGRAMMING\VC\INCLUDE\CWCHAR
D:\GAMMING\GAME PROGRAMMING\VC\INCLUDE\WCHAR.H
D:\GAMMING\GAME PROGRAMMING\VC\INCLUDE\WTIME.INL
D:\GAMMING\GAME PROGRAMMING\VC\INCLUDE\NEW
D:\GAMMING\GAME PROGRAMMING\VC\INCLUDE\XUTILITY
D:\GAMMING\GAME PROGRAMMING\VC\INCLUDE\UTILITY
D:\GAMMING\GAME PROGRAMMING\VC\INCLUDE\IOSFWD
D:\GAMMING\GAME PROGRAMMING\VC\INCLUDE\CRTDBG.H
D:\GAMMING\GAME PROGRAMMING\VC\INCLUDE\TYPE_TRAITS
D:\GAMMING\GAME PROGRAMMING\VC\INCLUDE\XREFWRAP
D:\GAMMING\GAME PROGRAMMING\VC\INCLUDE\XATOMIC0.H
D:\GAMMING\GAME PROGRAMMING\VC\INCLUDE\INTRIN.H
D:\GAMMING\GAME PROGRAMMING\VC\INCLUDE\SETJMP.H
D:\GAMMING\GAME PROGRAMMING\VC\INCLUDE\IMMINTRIN.H
D:\GAMMING\GAME PROGRAMMING\VC\INCLUDE\WMMINTRIN.H
D:\GAMMING\GAME PROGRAMMING\VC\INCLUDE\NMMINTRIN.H
D:\GAMMING\GAME PROGRAMMING\VC\INCLUDE\SMMINTRIN.H
D:\GAMMING\GAME PROGRAMMING\VC\INCLUDE\TMMINTRIN.H
D:\GAMMING\GAME PROGRAMMING\VC\INCLUDE\PMMINTRIN.H
D:\GAMMING\GAME PROGRAMMING\VC\INCLUDE\EMMINTRIN.H
D:\GAMMING\GAME PROGRAMMING\VC\INCLUDE\XMMINTRIN.H
D:\GAMMING\GAME PROGRAMMING\VC\INCLUDE\MMINTRIN.H
D:\GAMMING\GAME PROGRAMMING\VC\INCLUDE\AMMINTRIN.H
D:\GAMMING\GAME PROGRAMMING\VC\INCLUDE\MM3DNOW.H
D:\GAMMING\GAME PROGRAMMING\VC\INCLUDE\TYPEINFO
D:\GAMMING\GAME PROGRAMMING\VC\INCLUDE\XLOCINFO
D:\GAMMING\GAME PROGRAMMING\VC\INCLUDE\XLOCINFO.H
D:\GAMMING\GAME PROGRAMMING\VC\INCLUDE\CTYPE.H
D:\GAMMING\GAME PROGRAMMING\VC\INCLUDE\LOCALE.H
D:\GAMMING\GAME PROGRAMMING\VC\INCLUDE\XDEBUG
D:\GAMMING\GAME PROGRAMMING\VC\INCLUDE\XMEMORY
D:\GAMMING\GAME PROGRAMMING\VC\INCLUDE\XFACET
D:\GAMMING\GAME PROGRAMMING\VC\INCLUDE\SYSTEM_ERROR
D:\GAMMING\GAME PROGRAMMING\VC\INCLUDE\CERRNO
D:\GAMMING\GAME PROGRAMMING\VC\INCLUDE\ERRNO.H
D:\GAMMING\GAME PROGRAMMING\VC\INCLUDE\SHARE.H
D:\GAMMING\GAME PROGRAMMING\VC\INCLUDE\MAP
D:\GAMMING\GAME PROGRAMMING\VC\INCLUDE\XTREE
D:\GAMMING\GAME PROGRAMMING\VC\INCLUDE\TUPLE
C:\USERS\KUTSULAN\DESKTOP\TEST\DEPS\INCLUDE\SDL.H
C:\USERS\KUTSULAN\DESKTOP\TEST\DEPS\INCLUDE\SDL_MAIN.H
C:\USERS\KUTSULAN\DESKTOP\TEST\DEPS\INCLUDE\SDL_STDINC.H
C:\USERS\KUTSULAN\DESKTOP\TEST\DEPS\INCLUDE\SDL_CONFIG.H
C:\USERS\KUTSULAN\DESKTOP\TEST\DEPS\INCLUDE\SDL_PLATFORM.H
C:\PROGRAM FILES (X86)\WINDOWS KITS\8.1\INCLUDE\SHARED\WINAPIFAMILY.H
C:\USERS\KUTSULAN\DESKTOP\TEST\DEPS\INCLUDE\BEGIN_CODE.H
C:\USERS\KUTSULAN\DESKTOP\TEST\DEPS\INCLUDE\CLOSE_CODE.H
D:\GAMMING\GAME PROGRAMMING\VC\INCLUDE\STDARG.H
C:\USERS\KUTSULAN\DESKTOP\TEST\DEPS\INCLUDE\SDL_ASSERT.H
C:\USERS\KUTSULAN\DESKTOP\TEST\DEPS\INCLUDE\SDL_ATOMIC.H
C:\USERS\KUTSULAN\DESKTOP\TEST\DEPS\INCLUDE\SDL_AUDIO.H
C:\USERS\KUTSULAN\DESKTOP\TEST\DEPS\INCLUDE\SDL_ERROR.H
C:\USERS\KUTSULAN\DESKTOP\TEST\DEPS\INCLUDE\SDL_ENDIAN.H
C:\USERS\KUTSULAN\DESKTOP\TEST\DEPS\INCLUDE\SDL_MUTEX.H
C:\USERS\KUTSULAN\DESKTOP\TEST\DEPS\INCLUDE\SDL_THREAD.H
D:\GAMMING\GAME PROGRAMMING\VC\INCLUDE\PROCESS.H
C:\USERS\KUTSULAN\DESKTOP\TEST\DEPS\INCLUDE\SDL_RWOPS.H
C:\USERS\KUTSULAN\DESKTOP\TEST\DEPS\INCLUDE\SDL_CLIPBOARD.H
C:\USERS\KUTSULAN\DESKTOP\TEST\DEPS\INCLUDE\SDL_CPUINFO.H
C:\USERS\KUTSULAN\DESKTOP\TEST\DEPS\INCLUDE\SDL_EVENTS.H
C:\USERS\KUTSULAN\DESKTOP\TEST\DEPS\INCLUDE\SDL_VIDEO.H
C:\USERS\KUTSULAN\DESKTOP\TEST\DEPS\INCLUDE\SDL_PIXELS.H
C:\USERS\KUTSULAN\DESKTOP\TEST\DEPS\INCLUDE\SDL_RECT.H
C:\USERS\KUTSULAN\DESKTOP\TEST\DEPS\INCLUDE\SDL_SURFACE.H
C:\USERS\KUTSULAN\DESKTOP\TEST\DEPS\INCLUDE\SDL_BLENDMODE.H
C:\USERS\KUTSULAN\DESKTOP\TEST\DEPS\INCLUDE\SDL_KEYBOARD.H
C:\USERS\KUTSULAN\DESKTOP\TEST\DEPS\INCLUDE\SDL_KEYCODE.H
C:\USERS\KUTSULAN\DESKTOP\TEST\DEPS\INCLUDE\SDL_SCANCODE.H
C:\USERS\KUTSULAN\DESKTOP\TEST\DEPS\INCLUDE\SDL_MOUSE.H
C:\USERS\KUTSULAN\DESKTOP\TEST\DEPS\INCLUDE\SDL_JOYSTICK.H
C:\USERS\KUTSULAN\DESKTOP\TEST\DEPS\INCLUDE\SDL_GAMECONTROLLER.H
C:\USERS\KUTSULAN\DESKTOP\TEST\DEPS\INCLUDE\SDL_QUIT.H
C:\USERS\KUTSULAN\DESKTOP\TEST\DEPS\INCLUDE\SDL_GESTURE.H
C:\USERS\KUTSULAN\DESKTOP\TEST\DEPS\INCLUDE\SDL_TOUCH.H
C:\USERS\KUTSULAN\DESKTOP\TEST\DEPS\INCLUDE\SDL_FILESYSTEM.H
C:\USERS\KUTSULAN\DESKTOP\TEST\DEPS\INCLUDE\SDL_HAPTIC.H
C:\USERS\KUTSULAN\DESKTOP\TEST\DEPS\INCLUDE\SDL_HINTS.H
C:\USERS\KUTSULAN\DESKTOP\TEST\DEPS\INCLUDE\SDL_LOADSO.H
C:\USERS\KUTSULAN\DESKTOP\TEST\DEPS\INCLUDE\SDL_LOG.H
C:\USERS\KUTSULAN\DESKTOP\TEST\DEPS\INCLUDE\SDL_MESSAGEBOX.H
C:\USERS\KUTSULAN\DESKTOP\TEST\DEPS\INCLUDE\SDL_POWER.H
C:\USERS\KUTSULAN\DESKTOP\TEST\DEPS\INCLUDE\SDL_RENDER.H
C:\USERS\KUTSULAN\DESKTOP\TEST\DEPS\INCLUDE\SDL_SYSTEM.H
C:\USERS\KUTSULAN\DESKTOP\TEST\DEPS\INCLUDE\SDL_TIMER.H
C:\USERS\KUTSULAN\DESKTOP\TEST\DEPS\INCLUDE\SDL_VERSION.H
C:\USERS\KUTSULAN\DESKTOP\TEST\TEST\RECTANGLE.H
C:\USERS\KUTSULAN\DESKTOP\TEST\TEST\GLOBALS.H
D:\GAMMING\GAME PROGRAMMING\VC\INCLUDE\VECTOR
