^C:\USERS\KUTSULAN\DESKTOP\CPPINTRO\CIRCULARARRAYDEQUE\CIRCULARARRAYDEQUE\CIRCULARARRAYDEQUE.CPP
C:\USERS\KUTSULAN\DESKTOP\CPPINTRO\CIRCULARARRAYDEQUE\CIRCULARARRAYDEQUE\DEBUG\VC120.PDB
C:\USERS\KUTSULAN\DESKTOP\CPPINTRO\CIRCULARARRAYDEQUE\CIRCULARARRAYDEQUE\DEBUG\VC120.IDB
C:\USERS\KUTSULAN\DESKTOP\CPPINTRO\CIRCULARARRAYDEQUE\CIRCULARARRAYDEQUE\DEBUG\CIRCULARARRAYDEQUE.OBJ
