^C:\USERS\KUTSULAN\DESKTOP\PREDEF\PREDEF\VEC2.CPP
C:\USERS\KUTSULAN\DESKTOP\PREDEF\PREDEF\DEBUG\VC120.PDB
C:\USERS\KUTSULAN\DESKTOP\PREDEF\PREDEF\DEBUG\VC120.IDB
C:\USERS\KUTSULAN\DESKTOP\PREDEF\PREDEF\DEBUG\VEC2.OBJ
