^C:\USERS\KUTSULAN\DESKTOP\POPRAVKA_KONTROLNO1\2 (2).CPP
C:\USERS\KUTSULAN\DESKTOP\POPRAVKA_KONTROLNO1\POPRAVKA_KONTROLNO1\DEBUG\VC120.PDB
C:\USERS\KUTSULAN\DESKTOP\POPRAVKA_KONTROLNO1\POPRAVKA_KONTROLNO1\DEBUG\VC120.IDB
C:\USERS\KUTSULAN\DESKTOP\POPRAVKA_KONTROLNO1\POPRAVKA_KONTROLNO1\DEBUG\2 (2).OBJ
