^C:\USERS\KUTSULAN\DESKTOP\TEST2\TEST2\DEBUG\SOURCE.OBJ
C:\USERS\KUTSULAN\DESKTOP\TEST2\DEBUG\TEST2.ILK
C:\USERS\KUTSULAN\DESKTOP\TEST2\DEBUG\TEST2.EXE
C:\USERS\KUTSULAN\DESKTOP\TEST2\DEBUG\TEST2.PDB
