^C:\USERS\KUTSULAN\DESKTOP\EXPRESSION_TREE\EXPRESSION_TREE\DEBUG\EXPRESSIONTREE.OBJ
/OUT:"C:\USERS\KUTSULAN\DESKTOP\EXPRESSION_TREE\DEBUG\EXPRESSION_TREE.EXE" /INCREMENTAL /NOLOGO kernel32.lib user32.lib gdi32.lib winspool.lib comdlg32.lib advapi32.lib shell32.lib ole32.lib oleaut32.lib uuid.lib odbc32.lib odbccp32.lib /MANIFEST /MANIFESTUAC:"level='asInvoker' uiAccess='false'" /manifest:embed /DEBUG /PDB:"C:\USERS\KUTSULAN\DESKTOP\EXPRESSION_TREE\DEBUG\EXPRESSION_TREE.PDB" /TLBID:1 /DYNAMICBASE /NXCOMPAT /IMPLIB:"C:\USERS\KUTSULAN\DESKTOP\EXPRESSION_TREE\DEBUG\EXPRESSION_TREE.LIB" /MACHINE:X86 DEBUG\EXPRESSIONTREE.OBJ
^C:\USERS\KUTSULAN\DESKTOP\EXPRESSION_TREE\EXPRESSION_TREE\DEBUG\EXPRESSIONTREE.OBJ|C:\USERS\KUTSULAN\DESKTOP\EXPRESSION_TREE\EXPRESSION_TREE\DEBUG\PREFIX.OBJ
/OUT:"C:\USERS\KUTSULAN\DESKTOP\EXPRESSION_TREE\DEBUG\EXPRESSION_TREE.EXE" /INCREMENTAL /NOLOGO kernel32.lib user32.lib gdi32.lib winspool.lib comdlg32.lib advapi32.lib shell32.lib ole32.lib oleaut32.lib uuid.lib odbc32.lib odbccp32.lib /MANIFEST /MANIFESTUAC:"level='asInvoker' uiAccess='false'" /manifest:embed /DEBUG /PDB:"C:\USERS\KUTSULAN\DESKTOP\EXPRESSION_TREE\DEBUG\EXPRESSION_TREE.PDB" /TLBID:1 /DYNAMICBASE /NXCOMPAT /IMPLIB:"C:\USERS\KUTSULAN\DESKTOP\EXPRESSION_TREE\DEBUG\EXPRESSION_TREE.LIB" /MACHINE:X86 DEBUG\EXPRESSIONTREE.OBJDEBUG\PREFIX.OBJ
