^C:\USERS\KUTSULAN\DESKTOP\TEST3\TEST3\SOURCE.CPP
D:\GAMMING\GAME PROGRAMMING\VC\BIN\1033\CLUI.DLL
C:\WINDOWS\GLOBALIZATION\SORTING\SORTDEFAULT.NLS
D:\GAMMING\GAME PROGRAMMING\VC\BIN\MSPDBSRV.EXE
C:\WINDOWS\SYSTEM32\TZRES.DLL
D:\GAMMING\GAME PROGRAMMING\VC\INCLUDE\IOSTREAM
D:\GAMMING\GAME PROGRAMMING\VC\INCLUDE\ISTREAM
D:\GAMMING\GAME PROGRAMMING\VC\INCLUDE\OSTREAM
D:\GAMMING\GAME PROGRAMMING\VC\INCLUDE\IOS
D:\GAMMING\GAME PROGRAMMING\VC\INCLUDE\XLOCNUM
D:\GAMMING\GAME PROGRAMMING\VC\INCLUDE\CLIMITS
D:\GAMMING\GAME PROGRAMMING\VC\INCLUDE\YVALS.H
D:\GAMMING\GAME PROGRAMMING\VC\INCLUDE\XKEYCHECK.H
D:\GAMMING\GAME PROGRAMMING\VC\INCLUDE\CRTDEFS.H
D:\GAMMING\GAME PROGRAMMING\VC\INCLUDE\SAL.H
D:\GAMMING\GAME PROGRAMMING\VC\INCLUDE\CONCURRENCYSAL.H
D:\GAMMING\GAME PROGRAMMING\VC\INCLUDE\VADEFS.H
D:\GAMMING\GAME PROGRAMMING\VC\INCLUDE\USE_ANSI.H
D:\GAMMING\GAME PROGRAMMING\VC\INCLUDE\LIMITS.H
D:\GAMMING\GAME PROGRAMMING\VC\INCLUDE\CMATH
D:\GAMMING\GAME PROGRAMMING\VC\INCLUDE\MATH.H
D:\GAMMING\GAME PROGRAMMING\VC\INCLUDE\XTGMATH.H
D:\GAMMING\GAME PROGRAMMING\VC\INCLUDE\XTR1COMMON
D:\GAMMING\GAME PROGRAMMING\VC\INCLUDE\CSTDIO
D:\GAMMING\GAME PROGRAMMING\VC\INCLUDE\STDIO.H
D:\GAMMING\GAME PROGRAMMING\VC\INCLUDE\SWPRINTF.INL
D:\GAMMING\GAME PROGRAMMING\VC\INCLUDE\CSTDLIB
D:\GAMMING\GAME PROGRAMMING\VC\INCLUDE\STDLIB.H
D:\GAMMING\GAME PROGRAMMING\VC\INCLUDE\STREAMBUF
D:\GAMMING\GAME PROGRAMMING\VC\INCLUDE\XIOSBASE
D:\GAMMING\GAME PROGRAMMING\VC\INCLUDE\XLOCALE
D:\GAMMING\GAME PROGRAMMING\VC\INCLUDE\CSTRING
D:\GAMMING\GAME PROGRAMMING\VC\INCLUDE\STRING.H
D:\GAMMING\GAME PROGRAMMING\VC\INCLUDE\STDEXCEPT
D:\GAMMING\GAME PROGRAMMING\VC\INCLUDE\EXCEPTION
D:\GAMMING\GAME PROGRAMMING\VC\INCLUDE\XSTDDEF
D:\GAMMING\GAME PROGRAMMING\VC\INCLUDE\CSTDDEF
D:\GAMMING\GAME PROGRAMMING\VC\INCLUDE\STDDEF.H
D:\GAMMING\GAME PROGRAMMING\VC\INCLUDE\INITIALIZER_LIST
D:\GAMMING\GAME PROGRAMMING\VC\INCLUDE\EH.H
D:\GAMMING\GAME PROGRAMMING\VC\INCLUDE\MALLOC.H
D:\GAMMING\GAME PROGRAMMING\VC\INCLUDE\XSTRING
D:\GAMMING\GAME PROGRAMMING\VC\INCLUDE\XMEMORY0
D:\GAMMING\GAME PROGRAMMING\VC\INCLUDE\LIMITS
D:\GAMMING\GAME PROGRAMMING\VC\INCLUDE\YMATH.H
D:\GAMMING\GAME PROGRAMMING\VC\INCLUDE\CFLOAT
D:\GAMMING\GAME PROGRAMMING\VC\INCLUDE\FLOAT.H
D:\GAMMING\GAME PROGRAMMING\VC\INCLUDE\CRTWRN.H
D:\GAMMING\GAME PROGRAMMING\VC\INCLUDE\CWCHAR
D:\GAMMING\GAME PROGRAMMING\VC\INCLUDE\WCHAR.H
D:\GAMMING\GAME PROGRAMMING\VC\INCLUDE\WTIME.INL
D:\GAMMING\GAME PROGRAMMING\VC\INCLUDE\NEW
D:\GAMMING\GAME PROGRAMMING\VC\INCLUDE\XUTILITY
D:\GAMMING\GAME PROGRAMMING\VC\INCLUDE\UTILITY
D:\GAMMING\GAME PROGRAMMING\VC\INCLUDE\IOSFWD
D:\GAMMING\GAME PROGRAMMING\VC\INCLUDE\CRTDBG.H
D:\GAMMING\GAME PROGRAMMING\VC\INCLUDE\TYPE_TRAITS
D:\GAMMING\GAME PROGRAMMING\VC\INCLUDE\XREFWRAP
D:\GAMMING\GAME PROGRAMMING\VC\INCLUDE\XATOMIC0.H
D:\GAMMING\GAME PROGRAMMING\VC\INCLUDE\INTRIN.H
D:\GAMMING\GAME PROGRAMMING\VC\INCLUDE\SETJMP.H
D:\GAMMING\GAME PROGRAMMING\VC\INCLUDE\IMMINTRIN.H
D:\GAMMING\GAME PROGRAMMING\VC\INCLUDE\WMMINTRIN.H
D:\GAMMING\GAME PROGRAMMING\VC\INCLUDE\NMMINTRIN.H
D:\GAMMING\GAME PROGRAMMING\VC\INCLUDE\SMMINTRIN.H
D:\GAMMING\GAME PROGRAMMING\VC\INCLUDE\TMMINTRIN.H
D:\GAMMING\GAME PROGRAMMING\VC\INCLUDE\PMMINTRIN.H
D:\GAMMING\GAME PROGRAMMING\VC\INCLUDE\EMMINTRIN.H
D:\GAMMING\GAME PROGRAMMING\VC\INCLUDE\XMMINTRIN.H
D:\GAMMING\GAME PROGRAMMING\VC\INCLUDE\MMINTRIN.H
D:\GAMMING\GAME PROGRAMMING\VC\INCLUDE\AMMINTRIN.H
D:\GAMMING\GAME PROGRAMMING\VC\INCLUDE\MM3DNOW.H
D:\GAMMING\GAME PROGRAMMING\VC\INCLUDE\TYPEINFO
D:\GAMMING\GAME PROGRAMMING\VC\INCLUDE\XLOCINFO
D:\GAMMING\GAME PROGRAMMING\VC\INCLUDE\XLOCINFO.H
D:\GAMMING\GAME PROGRAMMING\VC\INCLUDE\CTYPE.H
D:\GAMMING\GAME PROGRAMMING\VC\INCLUDE\LOCALE.H
D:\GAMMING\GAME PROGRAMMING\VC\INCLUDE\XDEBUG
D:\GAMMING\GAME PROGRAMMING\VC\INCLUDE\XMEMORY
D:\GAMMING\GAME PROGRAMMING\VC\INCLUDE\XFACET
D:\GAMMING\GAME PROGRAMMING\VC\INCLUDE\SYSTEM_ERROR
D:\GAMMING\GAME PROGRAMMING\VC\INCLUDE\CERRNO
D:\GAMMING\GAME PROGRAMMING\VC\INCLUDE\ERRNO.H
D:\GAMMING\GAME PROGRAMMING\VC\INCLUDE\SHARE.H
D:\GAMMING\GAME PROGRAMMING\VC\INCLUDE\STRING
D:\GAMMING\GAME PROGRAMMING\VC\INCLUDE\ITERATOR
D:\GAMMING\GAME PROGRAMMING\VC\INCLUDE\LIST
D:\GAMMING\GAME PROGRAMMING\VC\INCLUDE\QUEUE
D:\GAMMING\GAME PROGRAMMING\VC\INCLUDE\ALGORITHM
D:\GAMMING\GAME PROGRAMMING\VC\INCLUDE\DEQUE
D:\GAMMING\GAME PROGRAMMING\VC\INCLUDE\VECTOR
