^C:\USERS\KUTSULAN\DESKTOP\TEST3\TEST3\DEBUG\SOURCE.OBJ
C:\USERS\KUTSULAN\DESKTOP\TEST3\DEBUG\TEST3.ILK
C:\USERS\KUTSULAN\DESKTOP\TEST3\DEBUG\TEST3.EXE
C:\USERS\KUTSULAN\DESKTOP\TEST3\DEBUG\TEST3.PDB
