^C:\USERS\KUTSULAN\DESKTOP\1.CPP
/c /ZI /nologo /W3 /WX- /sdl /Od /Oy- /D _MBCS /Gm /EHsc /RTC1 /MDd /GS /fp:precise /Zc:wchar_t /Zc:forScope /Fo"DEBUG\\" /Fd"DEBUG\VC120.PDB" /Gd /TP /analyze- C:\USERS\KUTSULAN\DESKTOP\1.CPP
^C:\USERS\KUTSULAN\DESKTOP\DOMASHNO2\DOMASHNO2\SOURCE.CPP
/c /ZI /nologo /W3 /WX- /sdl /Od /Oy- /D _MBCS /Gm /EHsc /RTC1 /MDd /GS /fp:precise /Zc:wchar_t /Zc:forScope /Fo"DEBUG\\" /Fd"DEBUG\VC120.PDB" /Gd /TP /analyze- C:\USERS\KUTSULAN\DESKTOP\DOMASHNO2\DOMASHNO2\SOURCE.CPP
^C:\USERS\KUTSULAN\DOWNLOADS\MAXVAL1.CPP
/c /ZI /nologo /W3 /WX- /sdl /Od /Oy- /D _MBCS /Gm /EHsc /RTC1 /MDd /GS /fp:precise /Zc:wchar_t /Zc:forScope /Fo"DEBUG\\" /Fd"DEBUG\VC120.PDB" /Gd /TP /analyze- C:\USERS\KUTSULAN\DOWNLOADS\MAXVAL1.CPP
^C:\USERS\KUTSULAN\DESKTOP\DOMASHNO N2\1.CPP
/c /ZI /nologo /W3 /WX- /sdl /Od /Oy- /D _MBCS /Gm /EHsc /RTC1 /MDd /GS /fp:precise /Zc:wchar_t /Zc:forScope /Fo"DEBUG\\" /Fd"DEBUG\VC120.PDB" /Gd /TP /analyze- C:\USERS\KUTSULAN\DESKTOP\DOMASHNO N2\1.CPP
