^C:\USERS\KUTSULAN\DESKTOP\DOMASHNO N2\1.CPP
C:\USERS\KUTSULAN\DESKTOP\DOMASHNO N2\DOMASHNO2\DOMASHNO2\DEBUG\VC120.PDB
C:\USERS\KUTSULAN\DESKTOP\DOMASHNO N2\DOMASHNO2\DOMASHNO2\DEBUG\VC120.IDB
C:\USERS\KUTSULAN\DESKTOP\DOMASHNO N2\DOMASHNO2\DOMASHNO2\DEBUG\1.OBJ
