^C:\USERS\KUTSULAN\DOWNLOADS\1.CPP
/c /ZI /nologo /W3 /WX- /sdl /Od /Oy- /D _MBCS /Gm /EHsc /RTC1 /MDd /GS /fp:precise /Zc:wchar_t /Zc:forScope /Fo"DEBUG\\" /Fd"DEBUG\VC120.PDB" /Gd /TP /analyze- C:\USERS\KUTSULAN\DOWNLOADS\1.CPP
^C:\USERS\KUTSULAN\DOWNLOADS\2.CPP
/c /ZI /nologo /W3 /WX- /sdl /Od /Oy- /D _MBCS /Gm /EHsc /RTC1 /MDd /GS /fp:precise /Zc:wchar_t /Zc:forScope /Fo"DEBUG\\" /Fd"DEBUG\VC120.PDB" /Gd /TP /analyze- C:\USERS\KUTSULAN\DOWNLOADS\2.CPP
^C:\USERS\KUTSULAN\DESKTOP\REKURSIQ\REKURSIQ\SOURCE.CPP
/c /ZI /nologo /W3 /WX- /sdl /Od /Oy- /D _MBCS /Gm /EHsc /RTC1 /MDd /GS /fp:precise /Zc:wchar_t /Zc:forScope /Fo"DEBUG\\" /Fd"DEBUG\VC120.PDB" /Gd /TP /analyze- C:\USERS\KUTSULAN\DESKTOP\REKURSIQ\REKURSIQ\SOURCE.CPP
