^C:\USERS\KUTSULAN\DESKTOP\REKURSIQ\REKURSIQ\DEBUG\SOURCE.OBJ
/OUT:"C:\USERS\KUTSULAN\DESKTOP\REKURSIQ\DEBUG\REKURSIQ.EXE" /INCREMENTAL /NOLOGO kernel32.lib user32.lib gdi32.lib winspool.lib comdlg32.lib advapi32.lib shell32.lib ole32.lib oleaut32.lib uuid.lib odbc32.lib odbccp32.lib /MANIFEST /MANIFESTUAC:"level='asInvoker' uiAccess='false'" /manifest:embed /DEBUG /PDB:"C:\USERS\KUTSULAN\DESKTOP\REKURSIQ\DEBUG\REKURSIQ.PDB" /TLBID:1 /DYNAMICBASE /NXCOMPAT /IMPLIB:"C:\USERS\KUTSULAN\DESKTOP\REKURSIQ\DEBUG\REKURSIQ.LIB" /MACHINE:X86 DEBUG\SOURCE.OBJ
^C:\USERS\KUTSULAN\DESKTOP\REKURSIQ\REKURSIQ\DEBUG\1.OBJ|C:\USERS\KUTSULAN\DESKTOP\REKURSIQ\REKURSIQ\DEBUG\SOURCE.OBJ
/OUT:"C:\USERS\KUTSULAN\DESKTOP\REKURSIQ\DEBUG\REKURSIQ.EXE" /INCREMENTAL /NOLOGO kernel32.lib user32.lib gdi32.lib winspool.lib comdlg32.lib advapi32.lib shell32.lib ole32.lib oleaut32.lib uuid.lib odbc32.lib odbccp32.lib /MANIFEST /MANIFESTUAC:"level='asInvoker' uiAccess='false'" /manifest:embed /DEBUG /PDB:"C:\USERS\KUTSULAN\DESKTOP\REKURSIQ\DEBUG\REKURSIQ.PDB" /TLBID:1 /DYNAMICBASE /NXCOMPAT /IMPLIB:"C:\USERS\KUTSULAN\DESKTOP\REKURSIQ\DEBUG\REKURSIQ.LIB" /MACHINE:X86 DEBUG\1.OBJDEBUG\SOURCE.OBJ
