^C:\USERS\KUTSULAN\DESKTOP\2.CPP
C:\USERS\KUTSULAN\DESKTOP\DOMASHNO2.2\DOMASHNO2.2\DEBUG\VC120.PDB
C:\USERS\KUTSULAN\DESKTOP\DOMASHNO2.2\DOMASHNO2.2\DEBUG\VC120.IDB
C:\USERS\KUTSULAN\DESKTOP\DOMASHNO2.2\DOMASHNO2.2\DEBUG\2.OBJ
